<?xml version="1.0" standalone="no"?>
<!DOCTYPE svg PUBLIC "-//W3C//DTD SVG 20010904//EN" "http://www.w3.org/TR/2001/REC-SVG-20010904/DTD/svg10.dtd">
<!-- Created using Krita: https://krita.org -->
<svg xmlns="http://www.w3.org/2000/svg" 
    xmlns:xlink="http://www.w3.org/1999/xlink"
    xmlns:krita="http://krita.org/namespaces/svg/krita"
    xmlns:sodipodi="http://sodipodi.sourceforge.net/DTD/sodipodi-0.dtd"
    width="336pt"
    height="336pt"
    viewBox="0 0 336 336">
<defs/>
<path id="shape0" transform="translate(71.9460112926906, 40.7067273806423)" fill="#000000" d="M50.2358 66.4612C45.3358 57.9742 42.8858 53.7306 42.8858 53.7306C42.9113 53.7391 42.9311 53.7436 42.9453 53.7441C44.9881 53.8194 46.7391 53.8815 48.7821 53.948C49.6544 53.9764 50.4035 53.9656 51.2749 54.0153C51.9074 54.0513 52.4558 54.0641 53.0762 54.1925C56.1862 54.8362 58.8484 55.416 61.9213 56.2186C63.9142 56.7391 65.5444 57.4585 67.5397 57.9701C69.0871 58.3668 70.4366 58.6493 72.026 58.8094C74.3977 59.0482 76.4464 59.1241 78.8301 59.1071C80.9914 59.0916 82.8334 58.8025 84.9931 58.7165C87.3831 58.6213 89.4376 58.4604 91.826 58.5894C93.3251 58.6703 94.5583 59.1814 96.0537 59.3138C100.465 59.7045 104.259 59.885 108.683 60.0823C110.493 60.1629 112.047 60.0597 113.858 60.1077C114.739 60.131 115.489 60.2526 116.369 60.2859C119.706 60.4123 122.568 60.4768 125.906 60.5639C126.236 60.5725 126.52 60.5588 126.851 60.5595C127.323 60.5604 127.728 60.5675 128.2 60.5683C130.656 60.5727 132.76 60.5719 135.216 60.5743C136.151 60.5752 136.952 60.5593 137.887 60.5775C141.187 60.6418 144.013 60.758 147.313 60.81C148.72 60.8322 149.926 60.8127 151.333 60.7896C154.288 60.7411 156.82 60.6756 159.775 60.6054C162.057 60.5512 164.018 60.6058 166.293 60.4343C167.293 60.3589 168.142 60.1676 169.109 59.9019C170.108 59.6271 170.929 59.2721 171.895 58.895C172.173 58.7863 172.397 58.6584 172.659 58.5156C172.908 58.3801 173.113 58.248 173.355 58.1003C173.604 57.9482 173.819 57.8203 174.063 57.6589C174.298 57.5026 174.5 57.3668 174.722 57.1928C175.323 56.724 175.824 56.3049 176.413 55.823C176.668 55.6153 176.9 55.4529 177.134 55.2224C177.632 54.7309 178.033 54.2829 178.502 53.7634C179.114 53.085 179.648 52.5101 180.224 51.8004C180.71 51.2019 181.092 50.6616 181.533 50.0291C181.827 49.6077 182.051 49.2279 182.321 48.7912C182.489 48.52 182.624 48.2825 182.785 48.007C182.928 47.7613 183.058 47.5543 183.19 47.302C183.308 47.0739 183.417 46.8791 183.5 46.6356C183.66 46.1659 183.77 45.7538 183.883 45.2703C183.944 45.0081 183.978 44.7779 183.994 44.5092C184.111 42.6497 184.215 41.0553 184.264 39.1928C184.274 38.7972 184.243 38.4541 184.162 38.0667C183.9 36.8117 183.709 35.7201 183.286 34.5097C183.054 33.8455 182.616 32.9411 181.971 31.7963L196.5 56.9616C196.231 56.5525 196.026 56.2363 195.886 56.0131C195.567 55.5058 195.318 55.0556 194.988 54.5554C194.467 53.7663 193.995 53.1072 193.456 52.3306C193.239 52.0182 193.048 51.754 192.827 51.4442C192.615 51.1466 192.437 50.8888 192.22 50.5952C191.897 50.1588 191.617 49.7864 191.283 49.3589C190.691 48.6043 190.209 47.9364 189.574 47.218C189.041 46.6144 188.536 46.1408 187.951 45.5873C187.523 45.1829 187.128 44.8677 186.683 44.4829C186.446 44.2787 186.248 44.0981 186.003 43.9045C185.526 43.5272 185.108 43.2137 184.618 42.8523C184.379 42.6759 184.17 42.5307 183.921 42.3681C183.677 42.209 183.46 42.0866 183.213 41.9336C182.959 41.777 182.741 41.6453 182.491 41.4836C182.249 41.3275 182.047 41.1866 181.809 41.0257C181.564 40.8597 181.358 40.71 181.109 40.5497C180.863 40.392 180.648 40.2652 180.397 40.1173C180.12 39.9544 179.878 39.8214 179.6 39.6619C179.317 39.5005 179.073 39.366 178.794 39.2003C178.514 39.0349 178.273 38.8956 178.002 38.7161C177.605 38.4523 177.272 38.2139 176.885 37.9342C176.632 37.7509 176.419 37.5883 176.174 37.3934C175.94 37.2072 175.754 37.0295 175.519 36.8457C175.148 36.5567 174.825 36.3151 174.441 36.0432C173.757 35.5589 173.164 35.1548 172.47 34.6855C171.996 34.3651 171.577 34.1103 171.105 33.787C170.764 33.5534 170.488 33.329 170.148 33.0948C169.792 32.8501 169.477 32.6543 169.115 32.4192C168.595 32.0821 168.147 31.7956 167.627 31.46C167.124 31.1362 166.717 30.8183 166.19 30.535C165.58 30.2067 165.049 29.9233 164.388 29.7173C163.561 29.4598 162.823 29.3337 161.964 29.2188C161.379 29.1405 160.866 29.1092 160.279 29.1671C159.664 29.2277 159.128 29.3169 158.559 29.5547C157.319 30.0726 156.268 30.5734 155.145 31.3112C153.924 32.1133 153.008 32.984 151.897 33.9316C151.558 34.2201 151.311 34.5144 151.007 34.8388C150.549 35.3269 150.128 35.7225 149.719 36.2527C148.72 37.5499 147.923 38.7073 146.989 40.0529C146.782 40.3515 146.637 40.6294 146.462 40.9477C145.983 41.8154 145.468 42.5131 145.12 43.4412C144.251 45.7639 143.703 47.8243 142.996 50.2018C142.85 50.6943 142.804 51.1364 142.685 51.6363C142.578 52.0881 142.445 52.4654 142.352 52.9203C142.096 54.1745 141.915 55.2568 141.69 56.5169C141.569 57.1991 141.436 57.7804 141.364 58.4696C141.186 60.1749 141.063 61.6407 140.976 63.3531C140.949 63.8678 140.984 64.3118 141.039 64.8241C141.122 65.5913 141.255 66.2409 141.371 67.0039C141.426 67.3674 141.459 67.6815 141.528 68.0426C141.591 68.3758 141.678 68.6545 141.749 68.9861C141.82 69.3198 141.867 69.6087 141.935 69.9431C142.147 70.9852 142.33 71.8781 142.548 72.9188C142.622 73.2738 142.706 73.5739 142.77 73.9308C142.899 74.6448 142.974 75.2629 143.1 75.9774C143.164 76.3384 143.245 76.6427 143.313 77.0031C143.383 77.3835 143.417 77.7144 143.494 78.0935C143.568 78.4549 143.663 78.7575 143.743 79.1174C143.823 79.473 143.872 79.7819 143.952 80.1375C144.037 80.517 144.118 80.8403 144.215 81.2172C144.306 81.5748 144.413 81.8743 144.488 82.2358C144.735 83.4268 144.956 84.447 145.133 85.6504C145.287 86.6993 145.296 87.6131 145.432 88.6646C145.457 88.8595 145.556 89.0097 145.59 89.2032C145.68 89.7162 145.788 90.1576 145.785 90.6783C145.764 94.061 145.638 96.959 145.522 100.34C145.367 104.826 145.203 108.671 145.011 113.155C144.982 113.848 144.921 114.44 144.888 115.132C144.761 117.82 144.698 120.125 144.554 122.812C144.536 123.137 144.462 123.41 144.428 123.734C144.297 124.966 144.181 126.022 144.082 127.258C144.046 127.708 144.057 128.095 144.044 128.547C144.037 128.833 144.029 129.078 144.026 129.364C144.012 130.441 143.988 131.363 143.994 132.439C144.011 135.641 143.983 138.387 144.091 141.587C144.133 142.827 144.395 143.877 144.422 145.117C144.51 149.282 144.451 152.854 144.419 157.02C144.411 157.985 144.34 158.812 144.306 159.777C144.203 162.623 144.085 165.061 144.026 167.907C143.974 170.415 143.997 172.565 143.988 175.073C143.985 175.923 143.989 176.653 143.992 177.503C143.992 177.748 143.974 177.958 143.996 178.202C144.017 178.43 144.071 178.621 144.112 178.847C144.152 179.061 144.19 179.243 144.226 179.457C144.26 179.661 144.299 179.835 144.311 180.042C144.394 181.375 144.421 182.521 144.497 183.855C144.507 184.036 144.52 184.192 144.557 184.369C144.66 184.867 144.771 185.289 144.897 185.782C144.925 185.89 144.955 185.981 144.998 186.084C145.087 186.297 145.194 186.467 145.274 186.683C145.344 186.874 145.377 187.047 145.425 187.244C145.444 187.323 145.454 187.393 145.467 187.473C145.474 187.52 145.465 187.564 145.484 187.607C145.51 187.663 145.557 187.737 145.626 187.83C139.289 176.816 134.402 168.351 130.964 162.435C130.893 162.311 130.97 162.5 131.197 162.999L145.848 188.375C145.887 188.62 145.928 188.806 145.969 188.933C145.991 189.003 146.041 189.095 146.118 189.21C139.77 178.21 134.886 169.749 131.464 163.828C131.429 163.768 131.475 163.856 131.602 164.091L146.254 189.468C146.3 189.604 146.333 189.71 146.351 189.785C146.394 189.961 146.41 190.117 146.452 190.294C146.48 190.412 146.513 190.511 146.55 190.627C146.638 190.905 146.734 191.138 146.81 191.419C146.855 191.588 146.869 191.738 146.895 191.911C146.921 192.086 146.924 192.239 146.957 192.414C147.113 193.258 147.322 193.968 147.435 194.819C147.553 195.714 147.535 196.493 147.613 197.393C147.637 197.67 147.679 197.905 147.726 198.179C147.76 198.376 147.806 198.541 147.842 198.737C147.878 198.928 147.903 199.093 147.93 199.285C147.956 199.474 147.984 199.635 147.993 199.825C148.032 200.742 147.98 201.532 148.066 202.446C148.115 202.959 148.242 203.388 148.375 203.886C148.465 204.224 148.587 204.5 148.703 204.83C148.814 205.148 148.88 205.432 149.024 205.737C149.203 206.115 149.487 206.64 149.877 207.313L135.308 182.078C135.534 182.382 135.717 182.608 135.856 182.757C136.078 182.996 136.282 183.19 136.535 183.396C136.792 183.605 137.033 183.759 137.311 183.941C137.84 184.289 138.305 184.568 138.839 184.908C139.122 185.089 139.353 185.264 139.644 185.431C140.057 185.668 140.424 185.848 140.848 186.064C141.11 186.197 141.338 186.302 141.603 186.428C142.017 186.625 142.363 186.816 142.788 186.988C143.093 187.111 143.367 187.186 143.685 187.27C144.725 187.546 145.617 187.783 146.668 188.014C147.031 188.094 147.348 188.135 147.719 188.157C149.655 188.271 151.316 188.362 153.255 188.404C153.546 188.411 153.791 188.337 154.08 188.297C154.34 188.26 154.564 188.225 154.824 188.184C155.244 188.117 155.604 188.06 156.023 187.989C156.343 187.935 156.617 187.89 156.934 187.827C157.893 187.638 158.722 187.504 159.67 187.268C160.721 187.007 161.611 186.741 162.641 186.406C162.987 186.294 163.265 186.144 163.596 185.991C163.913 185.845 164.185 185.719 164.494 185.554C164.806 185.387 165.074 185.24 165.368 185.042C165.763 184.775 166.079 184.514 166.459 184.227C166.677 184.062 166.864 183.922 167.075 183.75C167.391 183.492 167.68 183.29 167.964 182.998C169.019 181.914 169.879 180.941 170.898 179.822C171.165 179.53 171.383 179.271 171.637 178.968C171.906 178.648 172.131 178.37 172.394 178.045C172.641 177.739 172.851 177.476 173.093 177.167C173.456 176.703 173.772 176.308 174.124 175.834C174.338 175.547 174.508 175.29 174.71 174.993C174.908 174.702 175.07 174.446 175.266 174.154C175.457 173.872 175.633 173.639 175.815 173.351C175.993 173.07 176.13 172.819 176.295 172.53C176.534 172.112 176.749 171.758 176.97 171.33C177.253 170.786 177.566 170.343 177.735 169.753C178.036 168.705 178.207 167.776 178.301 166.689C178.5 164.403 178.643 162.433 178.57 160.14C178.528 158.837 178.223 157.743 177.974 156.464C177.829 155.718 177.645 155.092 177.445 154.359C177.273 153.728 177.115 153.189 176.912 152.567C176.739 152.04 176.57 151.596 176.371 151.08C176.197 150.628 176.034 150.246 175.845 149.801C175.635 149.31 175.465 148.884 175.231 148.404C175.078 148.09 174.917 147.836 174.74 147.535C174.662 147.403 174.547 147.217 174.393 146.978C180.719 157.942 185.587 166.374 188.998 172.275C189.079 172.416 188.966 172.213 188.659 171.665L174.068 146.392C173.924 146.106 173.815 145.886 173.741 145.73C173.48 145.176 173.261 144.699 173.006 144.141C172.786 143.659 172.601 143.245 172.384 142.761C172.18 142.306 172.013 141.912 171.804 141.459C171.671 141.172 171.548 140.93 171.409 140.645C171.198 140.213 171.012 139.845 170.803 139.412C170.66 139.116 170.533 138.865 170.406 138.563C170.282 138.273 170.199 138.015 170.087 137.72C169.913 137.264 169.771 136.871 169.591 136.418C169.42 135.991 169.246 135.637 169.084 135.207C168.984 134.941 168.934 134.7 168.843 134.431C168.666 133.901 168.487 133.456 168.321 132.922C168.166 132.422 168.069 131.983 167.925 131.479C167.772 130.942 167.653 130.477 167.474 129.948C167.201 129.14 166.993 128.435 166.635 127.661C166.533 127.439 166.329 127.155 166.025 126.809L180.662 152.161C180.497 151.972 180.363 151.837 180.257 151.756C180.114 151.645 179.972 151.576 179.808 151.501C179.54 151.379 179.3 151.3 179.024 151.197C178.761 151.098 178.537 151.013 178.271 150.925C177.904 150.804 177.595 150.681 177.218 150.598C175.885 150.305 174.745 150.014 173.39 149.852C171.621 149.641 170.091 149.571 168.309 149.536C164.901 149.47 161.978 149.503 158.57 149.565C158.172 149.572 157.838 149.674 157.444 149.734C157.053 149.793 156.72 149.854 156.328 149.903C154.221 150.167 152.41 150.349 150.306 150.628C149.868 150.686 149.5 150.785 149.066 150.865C147.912 151.078 146.922 151.252 145.768 151.468C144.875 151.635 144.118 151.825 143.22 151.958C141.564 152.204 140.142 152.417 138.473 152.551C135.573 152.785 133.081 152.924 130.173 153.009C127.038 153.101 124.349 153.044 121.212 153.058C120.775 153.06 120.4 153.07 119.962 153.054C118.792 153.01 117.792 152.924 116.622 152.886C111.672 152.724 107.429 152.602 102.479 152.483C101.527 152.46 100.71 152.51 99.759 152.479C98.7799 152.448 97.9437 152.361 96.9657 152.304C96.3437 152.268 95.8081 152.274 95.1878 152.215C93.6984 152.075 92.4122 152.005 90.9405 151.737C89.7617 151.522 88.8038 151.111 87.6366 150.84C86.699 150.622 85.883 150.49 84.9319 150.342C84.5464 150.282 84.2107 150.27 83.8212 150.248C82.3737 150.165 81.1326 150.096 79.6837 150.042C78.8879 150.012 78.2051 150.007 77.4088 150.009C75.0725 150.016 73.0702 150.072 70.7339 150.069C68.2457 150.065 66.1124 150.059 63.6253 149.989C63.1124 149.974 62.6785 149.881 62.1683 149.827C61.6938 149.777 61.2845 149.757 60.8119 149.692C60.1479 149.6 59.5786 149.515 58.9225 149.378C58.6867 149.328 58.4997 149.231 58.2702 149.158C58.0574 149.09 57.8766 149.025 57.6588 148.975C57.1521 148.859 56.7213 148.714 56.2023 148.686C53.3032 148.531 50.8115 148.572 47.9107 148.453C47.4205 148.433 47.0073 148.332 46.5185 148.29C45.2438 148.178 44.1503 148.089 42.873 148.012C42.3432 147.98 41.8877 147.982 41.3569 147.978C39.058 147.961 37.0874 147.96 34.7884 147.954C34.3978 147.953 34.0629 147.956 33.6723 147.958C32.8597 147.963 32.1623 148.014 31.3506 147.975C31.0876 147.962 30.874 147.865 30.6166 147.81C30.4488 147.773 30.305 147.742 30.1358 147.712C29.9649 147.682 29.8174 147.662 29.6452 147.641C29.4712 147.619 29.3219 147.6 29.1469 147.589C28.6728 147.56 28.2658 147.545 27.7912 147.524C27.6216 147.517 27.4761 147.513 27.3064 147.509C27.0632 147.504 26.8545 147.493 26.6114 147.5C26.4552 147.505 26.321 147.516 26.167 147.542C26.0026 147.571 25.867 147.62 25.704 147.656C25.5377 147.692 25.3878 147.694 25.2263 147.749C25.0883 147.795 24.9894 147.88 24.8571 147.94C24.6684 148.027 24.498 148.082 24.3099 148.17C24.1728 148.234 24.0595 148.298 23.929 148.374C23.719 148.498 23.5232 148.584 23.3374 148.741C22.9433 149.075 22.6279 149.389 22.2806 149.771C22.0823 149.99 21.9508 150.209 21.7836 150.452C21.6794 150.603 21.5983 150.739 21.5059 150.898C21.2968 151.257 21.1 151.556 20.9224 151.932C20.8289 152.129 20.8147 152.324 20.7353 152.528C20.6222 152.818 20.4682 153.044 20.3731 153.34C20.2182 153.823 20.132 154.251 20.0237 154.746C19.9826 154.934 19.9675 155.099 19.947 155.291C19.9008 155.721 19.8665 156.09 19.8331 156.521C19.8182 156.714 19.8112 156.879 19.809 157.072C19.7833 159.325 19.7708 161.255 19.7533 163.508C19.7518 163.704 19.7543 163.871 19.7545 164.067C19.7548 164.258 19.7547 164.421 19.7548 164.611C19.7548 164.799 19.7437 164.96 19.7548 165.147C19.7802 165.573 19.8127 165.937 19.8591 166.361C19.9009 166.744 19.9246 167.075 20.0069 167.451C20.1333 168.029 20.3018 168.509 20.4541 169.08C20.5382 169.396 20.5957 169.67 20.6824 169.986C20.7733 170.316 20.855 170.599 20.9615 170.924C21.0728 171.265 21.1747 171.556 21.3045 171.89C21.4347 172.225 21.565 172.505 21.7041 172.836C21.8335 173.144 21.9476 173.407 22.0717 173.717C22.1989 174.035 22.285 174.317 22.422 174.631C22.6358 175.121 22.8475 175.528 23.0732 176.012C23.2197 176.326 23.3415 176.597 23.4853 176.913C23.6408 177.254 23.7664 177.549 23.9283 177.887C24.0831 178.21 24.2274 178.481 24.3898 178.8C24.5739 179.162 24.7281 179.475 24.9181 179.834C25.235 180.432 25.5134 180.942 25.8383 181.536C26.0675 181.955 26.3978 182.553 26.829 183.329L12.3442 158.24C12.6498 158.752 12.8866 159.145 13.0546 159.418C13.2844 159.793 13.4819 160.113 13.7204 160.482C13.9316 160.809 14.1174 161.085 14.3393 161.404C14.6244 161.814 14.8775 162.159 15.1688 162.565C15.3436 162.808 15.4908 163.019 15.671 163.259C15.8431 163.488 16 163.677 16.1753 163.903C16.3565 164.137 16.502 164.345 16.6895 164.574C16.8806 164.807 17.0594 164.995 17.2565 165.223C17.458 165.457 17.6221 165.665 17.8283 165.894C18.1945 166.302 18.5093 166.651 18.8917 167.044C19.4155 167.581 19.8639 168.044 20.4167 168.552C21.0233 169.109 21.5578 169.572 22.202 170.085C22.7117 170.491 23.1832 170.793 23.7107 171.176C24.0396 171.414 24.3127 171.631 24.6491 171.859C25.077 172.148 25.4613 172.37 25.8932 172.654C26.1388 172.815 26.3422 172.964 26.5844 173.13C26.7638 173.253 26.9064 173.377 27.098 173.48C27.4333 173.661 27.7445 173.768 28.0852 173.938C28.2453 174.017 28.3626 174.124 28.5276 174.193C28.8839 174.342 29.1993 174.446 29.5688 174.558C29.7476 174.612 29.9112 174.617 30.0913 174.667C30.7802 174.858 31.3619 175.052 32.0505 175.244C32.4591 175.357 32.8109 175.451 33.2254 175.54C33.5235 175.605 33.7866 175.62 34.085 175.684C34.4053 175.751 34.6672 175.87 34.9916 175.914C36.5308 176.125 37.8554 176.27 39.4024 176.414C40.0268 176.471 40.5655 176.498 41.1925 176.489C42.4047 176.472 43.4614 176.563 44.653 176.341C46.239 176.044 47.5452 175.548 49.0685 175.017C49.596 174.833 50.0213 174.597 50.4955 174.302C51.8978 173.428 53.0793 172.645 54.4223 171.683C55.0664 171.222 55.5607 170.751 56.166 170.24C56.7755 169.725 57.2912 169.276 57.8929 168.752C58.2906 168.406 58.655 168.134 59.0215 167.755C60.5769 166.147 61.9963 164.837 63.3802 163.079C64.3948 161.791 65.0354 160.52 65.8417 159.091C66.286 158.304 66.5776 157.582 66.9483 156.758C67.221 156.151 67.4295 155.621 67.6796 155.004C67.9255 154.398 68.1509 153.884 68.3653 153.266C68.6714 152.384 68.8873 151.612 69.1659 150.721C69.3369 150.174 69.5397 149.719 69.6499 149.156C70.0234 147.25 70.2851 145.603 70.5456 143.678C70.6573 142.852 70.6383 142.133 70.7123 141.303C70.7579 140.791 70.847 140.358 70.8873 139.845C71.0479 137.81 71.1965 136.065 71.2862 134.025C71.3095 133.495 71.2326 133.04 71.2098 132.509C71.1632 131.421 71.1538 130.488 71.088 129.401C71.0557 128.868 70.9966 128.414 70.9297 127.885C70.8329 127.119 70.7254 126.466 70.6204 125.701C70.3926 124.043 70.2165 122.62 69.9788 120.963C69.8861 120.317 69.757 119.771 69.6764 119.123C69.5853 118.39 69.5504 117.757 69.4887 117.021C69.4328 116.354 69.4052 115.781 69.3405 115.115C69.2726 114.415 69.177 113.82 69.1099 113.12C68.9519 111.472 68.8504 110.056 68.6974 108.408C68.6366 107.753 68.5779 107.192 68.4992 106.539C68.3418 105.233 68.1375 104.121 68.0228 102.81C67.7628 99.8407 67.6167 97.2893 67.4291 94.3145C67.3986 93.8304 67.4382 93.4125 67.3996 92.929C67.2031 90.4713 67.038 88.3635 66.7576 85.9139C66.6787 85.2247 66.5304 84.6452 66.374 83.9693C66.1824 83.1413 65.9508 82.4481 65.7638 81.6191C65.6283 81.0188 65.4765 80.5035 65.4535 79.8885C65.3218 76.378 65.3642 73.3651 65.3224 69.8524C65.284 66.6199 65.3667 63.8462 65.2244 60.6167C65.1711 59.4088 64.9505 58.3877 64.7644 57.1931C64.6314 56.3391 64.4721 55.6148 64.3129 54.7653C64.2354 54.3516 64.1625 53.9983 64.0882 53.584C63.9286 52.6939 63.7526 51.9366 63.6445 51.0388C63.435 49.2986 63.3551 47.7964 63.1815 46.0523C63.1653 45.8895 63.1401 45.7509 63.1023 45.5918C63.0656 45.4374 62.9984 45.3143 62.9691 45.1583C62.9258 44.9275 62.9414 44.7218 62.8958 44.4915C62.3761 41.8656 61.8359 39.6335 61.3543 37.0004C60.5688 32.7051 59.9713 29.0097 59.2761 24.6989C59.1327 23.8092 59.1303 23.0284 58.9585 22.1437C58.7071 20.8486 58.4556 19.7422 58.0687 18.481C57.82 17.6701 57.4853 17.0177 57.1475 16.2397C57.0451 16.0038 56.9242 15.8173 56.8118 15.5859C56.713 15.3825 56.65 15.1977 56.5443 14.9978C56.4391 14.7989 56.2776 14.521 56.0599 14.1641L70.658 39.4487C70.3033 38.8777 70.0306 38.4384 69.8399 38.1308C69.6796 37.8723 69.5387 37.6529 69.3827 37.3919C69.2691 37.2017 69.1107 36.9279 68.9074 36.5703L54.3523 11.3602C54.146 11.0065 54.0001 10.7284 53.9144 10.526C53.6053 9.79529 53.3471 9.16421 53.1037 8.40907C52.9825 8.03302 52.9485 7.6918 52.8757 7.30347C52.8545 7.19046 52.8671 7.08791 52.8352 6.97745C52.8149 6.90714 52.7697 6.81284 52.6996 6.69457L67.3463 32.0635C66.9856 31.6189 66.6886 31.2971 66.4555 31.0981C66.0926 30.7883 65.7369 30.5769 65.3242 30.3374C65.1179 30.2176 64.919 30.1574 64.6946 30.0762C64.01 29.8283 63.4216 29.6193 62.7281 29.3975C62.3389 29.2731 61.9941 29.2044 61.6026 29.0873C60.9969 28.906 60.4828 28.7342 59.8795 28.5452C59.5873 28.4536 59.3338 28.3846 59.0441 28.2855C58.7311 28.1784 58.4702 28.0658 58.1581 27.9563C57.8139 27.8355 57.5034 27.7737 57.1692 27.6276C56.4843 27.328 55.9416 26.9747 55.2522 26.6855C54.4841 26.3634 53.8155 26.1019 53.0116 25.884C52.2504 25.6776 51.5807 25.5485 50.7952 25.4775C49.2036 25.3335 47.831 25.3285 46.2339 25.2708C45.6617 25.2502 45.1705 25.2571 44.5979 25.2537C44.3048 25.2519 44.0535 25.2568 43.7604 25.2561C43.4755 25.2555 43.2312 25.246 42.9463 25.2499C39.857 25.2932 37.2064 25.2534 34.1199 25.3912C33.5978 25.4145 33.1667 25.5772 32.6611 25.7093C32.361 25.7877 32.1123 25.8846 31.8212 25.9916C31.3868 26.1513 31.0179 26.2978 30.5887 26.4712C30.2954 26.5897 30.0469 26.6983 29.7573 26.8255C29.4285 26.9699 29.1364 27.0736 28.8219 27.247C27.6068 27.9168 26.5301 28.4407 25.3907 29.2326C24.1272 30.1107 23.1333 30.9877 21.9776 32.0035C21.3516 32.5537 20.8718 33.0874 20.3073 33.7006C20.0582 33.9712 19.8799 34.2335 19.656 34.5254C19.4368 34.8111 19.2415 35.0512 19.0416 35.3506C18.7258 35.8236 18.4754 36.2424 18.1837 36.7306C17.9209 37.1705 17.7086 37.5552 17.4577 38.0019C17.3016 38.2798 17.1666 38.5174 17.0208 38.8009C16.8759 39.0826 16.7507 39.3243 16.6275 39.6162C16.3101 40.3686 16.0316 41.012 15.7628 41.783C15.6576 42.0845 15.6397 42.3633 15.5615 42.673C15.4406 43.1525 15.307 43.5559 15.1941 44.0373C15.0889 44.4862 15.0038 44.8731 14.9387 45.3295C14.8483 45.9625 14.8088 46.5099 14.7501 47.1465C14.7227 47.444 14.6987 47.6994 14.6926 47.9981C14.6265 51.2527 14.558 54.0424 14.5439 57.2977C14.5422 57.6765 14.5963 57.9997 14.6477 58.375C14.7289 58.9689 14.8217 59.4746 14.9224 60.0655C14.9826 60.4183 15.0341 60.7209 15.1073 61.0713C15.2885 61.9391 15.4763 62.6761 15.6494 63.5456C15.7115 63.8577 15.7194 64.1329 15.7789 64.4455C15.8382 64.7571 15.919 65.0178 15.9886 65.3272C16.0541 65.6186 16.1101 65.8685 16.1651 66.162C16.2393 66.5582 16.2732 66.9033 16.3576 67.2974C16.4092 67.5381 16.4689 67.7417 16.5529 67.9731C16.6616 68.2728 16.7894 68.516 16.9072 68.8123C16.9872 69.0137 17.0428 69.1913 17.1181 69.3946C17.2523 69.7572 17.359 70.0714 17.5056 70.4292C17.7025 70.91 17.8543 71.3316 18.0993 71.7898C18.6191 72.7619 19.3961 74.1317 20.4303 75.8992L5.90185 50.7352C6.15892 51.1433 6.37145 51.4457 6.53942 51.6425C7.08562 52.2825 7.56092 52.8295 8.17767 53.4018C8.66126 53.8506 9.11758 54.1933 9.67256 54.55C10.5226 55.0964 11.2888 55.5053 12.1829 55.9763C12.7165 56.2574 13.1963 56.4536 13.7482 56.6969C14.3183 56.9483 14.8071 57.1648 15.3883 57.3894C15.7996 57.5484 16.1506 57.7016 16.5822 57.7923C18.2536 58.1433 19.6854 58.4911 21.386 58.6491C24.3481 58.9243 26.9026 59.0703 29.8772 59.0275C31.3221 59.0068 32.5348 58.653 33.968 58.4682C34.7039 58.3734 35.3405 58.3383 36.0744 58.2288C36.5551 58.157 36.9563 58.0349 37.4351 57.9508C37.8845 57.8718 38.2718 57.8139 38.7253 57.763C39.5228 57.6735 40.2112 57.6425 41.0085 57.5498C41.2622 57.5203 41.4719 57.4434 41.7257 57.414C42.8167 57.2878 43.7583 57.2384 44.8486 57.1056C45.3293 57.047 45.7389 56.9727 46.2117 56.8674C46.8107 56.734 47.3166 56.5878 47.9081 56.4244C48.3461 56.3034 48.7213 56.198 49.1526 56.0551C49.9859 55.779 50.6832 55.4922 51.5203 55.2278C51.7276 55.1623 51.9143 55.1324 52.131 55.1143C53.2819 55.0182 54.2714 54.9756 55.424 54.9018C55.6029 54.8903 55.8586 54.8745 56.1909 54.8544L70.824 80.1996C70.4777 80.1845 70.2115 80.182 70.0254 80.1921C68.8751 80.2545 67.8897 80.3233 66.7419 80.4212C66.524 80.4398 66.3359 80.4647 66.1256 80.5249C65.2766 80.7681 64.5624 81.0214 63.72 81.2866C63.288 81.4226 62.9208 81.5501 62.4844 81.6713C61.8919 81.8358 61.3825 81.9739 60.7812 82.1026C60.3061 82.2044 59.8934 82.2668 59.4114 82.3292C58.3293 82.4693 57.3953 82.5375 56.3136 82.6811C56.0625 82.7144 55.8583 82.8081 55.6064 82.8341C54.7988 82.9177 54.1003 82.9147 53.2923 82.9938C52.8389 83.0382 52.4544 83.112 52.005 83.1868C51.522 83.2672 51.1141 83.3746 50.6284 83.4371C49.8863 83.5327 49.2437 83.5567 48.4999 83.6382C47.0518 83.7968 45.8228 84.1189 44.366 84.123C41.3757 84.1313 38.8118 83.9468 35.8339 83.6736C34.1557 83.5197 32.7363 83.2192 31.0807 82.9045C30.6612 82.8247 30.3135 82.6984 29.9137 82.5483C29.3283 82.3284 28.8434 82.0976 28.2696 81.8488C27.7277 81.6139 27.2503 81.4388 26.7263 81.1663C25.8301 80.7003 25.0677 80.2853 24.2166 79.7411C23.6672 79.3898 23.211 79.0575 22.7335 78.6133C22.1071 78.0305 21.628 77.4703 21.0744 76.8179C20.9051 76.6183 20.6903 76.3121 20.4303 75.8992L5.90185 50.7352C4.85784 48.9499 4.07303 47.5666 3.54743 46.5851C3.2888 46.1022 3.12329 45.6601 2.91306 45.1542C2.76208 44.7909 2.65374 44.4711 2.51581 44.1027C2.43743 43.8933 2.37754 43.7111 2.29503 43.5033C2.18052 43.2149 2.05771 42.9775 1.95301 42.6854C1.87109 42.4569 1.81123 42.2562 1.76275 42.0183C1.68542 41.6388 1.66251 41.3058 1.59422 40.9245C1.54151 40.6302 1.48205 40.3806 1.41716 40.0887C1.34946 39.7843 1.27259 39.5274 1.2154 39.2208C1.15734 38.9095 1.14914 38.6357 1.08819 38.3249C0.919181 37.4632 0.735169 36.7327 0.558709 35.8725C0.487786 35.5267 0.438896 35.228 0.381472 34.8798C0.285367 34.2969 0.200584 33.7976 0.120079 33.2125C0.067033 32.8269 -7.02656e-05 32.4962 5.52233e-08 32.1069C0.000591118 28.8356 0.0647389 26.0319 0.121967 22.761C0.127203 22.4617 0.150346 22.2057 0.178449 21.9077C0.238172 21.2744 0.281934 20.7303 0.372851 20.1008C0.438886 19.6436 0.520054 19.255 0.626477 18.8054C0.739704 18.3271 0.879154 17.9281 0.999972 17.4516C1.07898 17.1401 1.09286 16.8587 1.19722 16.5547C1.46324 15.7798 1.73499 15.1308 2.05552 14.3768C2.17765 14.0895 2.31546 13.8585 2.46081 13.5822C2.60952 13.2994 2.73638 13.0566 2.89562 12.7797C3.14831 12.3403 3.37159 11.9674 3.63752 11.5358C3.93445 11.054 4.18704 10.6393 4.50364 10.1702C4.70522 9.87144 4.89936 9.63038 5.11707 9.34319C5.34014 9.04892 5.51446 8.78211 5.76294 8.50895C6.32438 7.89172 6.79653 7.34825 7.42791 6.80276C8.5895 5.79917 9.6132 4.96504 10.8756 4.0917C12.0168 3.30225 13.0811 2.75839 14.2812 2.06175C14.5905 1.88221 14.8634 1.74114 15.187 1.58898C15.4736 1.45423 15.7298 1.36229 16.0231 1.24281C16.451 1.06848 16.8133 0.906885 17.2477 0.749523C17.5412 0.643244 17.7974 0.563061 18.1009 0.490245C18.6114 0.367734 19.0466 0.216925 19.5711 0.192034C22.6479 0.046013 25.2902 0.0634207 28.3699 0.00289309C28.6536 -0.00268255 28.8969 0.00116266 29.1806 0.00317118C29.4766 0.00526603 29.7302 0.0116799 30.0261 0.0146167C30.5979 0.0202915 31.0884 0.00824031 31.6599 0.0277756C33.2552 0.0823098 34.6265 0.0835259 36.2164 0.226218C37.0027 0.296791 37.6753 0.419407 38.4346 0.6358C39.2569 0.870162 39.9302 1.17234 40.7163 1.50872C41.3962 1.79964 41.9397 2.13534 42.6194 2.42652C42.9518 2.56891 43.2598 2.62893 43.6023 2.74497C43.9104 2.84934 44.1691 2.9542 44.478 3.05622C44.7667 3.1516 45.0181 3.22113 45.3093 3.30882C45.906 3.48851 46.4179 3.64096 47.0147 3.82017C47.4156 3.94056 47.7609 4.03865 48.16 4.16483C48.8403 4.37987 49.4255 4.55847 50.0986 4.79503C50.3279 4.87563 50.5242 4.95137 50.7362 5.07024C51.1319 5.29206 51.4803 5.47651 51.8298 5.76564C52.0586 5.95492 52.3485 6.26456 52.6996 6.69457L67.3463 32.0635C67.4208 32.1875 67.4687 32.2865 67.4901 32.3605C67.5204 32.4656 67.5029 32.5637 67.5219 32.6714C67.5888 33.0511 67.6209 33.3839 67.7354 33.752C67.9579 34.4673 68.1944 35.0661 68.482 35.7578C68.5642 35.9554 68.706 36.2262 68.9074 36.5703L54.3523 11.3602C54.5506 11.7091 54.7052 11.9763 54.8161 12.1617C54.9674 12.4146 55.1042 12.6269 55.2597 12.8772C55.4463 13.1776 55.713 13.6065 56.0599 14.1641L70.658 39.4487C70.8809 39.8142 71.0462 40.0988 71.1539 40.3024C71.2563 40.496 71.3162 40.6755 71.4113 40.8729C71.5167 41.0917 71.6308 41.2679 71.7264 41.4911C72.0489 42.2437 72.3717 42.8743 72.6053 43.659C72.9686 44.8795 73.2036 45.9496 73.4267 47.2034C73.5759 48.0416 73.5408 48.7821 73.6668 49.6242C74.2977 53.8415 74.7973 57.4651 75.5888 61.6553C76.127 64.5043 76.8204 66.8971 77.4639 69.7241C77.5256 69.995 77.5423 70.2345 77.6033 70.5055C77.6385 70.6615 77.703 70.7861 77.7383 70.9421C77.7716 71.0897 77.7866 71.2194 77.7988 71.3702C77.9357 73.0557 77.9813 74.5068 78.1644 76.188C78.2616 77.0808 78.44 77.8331 78.5988 78.7171C78.6746 79.1385 78.756 79.4966 78.8345 79.9175C78.9911 80.7571 79.136 81.4751 79.2706 82.3185C79.4657 83.5417 79.73 84.5835 79.7763 85.8213C79.8937 88.9685 79.6964 91.6704 79.7373 94.8196C79.7841 98.4293 79.8421 101.525 80.0266 105.13C80.0587 105.756 80.2211 106.279 80.355 106.892C80.5272 107.68 80.7326 108.342 80.9009 109.131C81.0377 109.771 81.1538 110.323 81.226 110.974C81.4993 113.437 81.6849 115.553 81.8874 118.023C81.9271 118.507 81.8901 118.925 81.9178 119.41C82.0859 122.345 82.2043 124.863 82.447 127.794C82.5554 129.103 82.7625 130.213 82.9205 131.517C83.0002 132.175 83.0665 132.739 83.1261 133.399C83.2737 135.032 83.3597 136.434 83.5125 138.066C83.5785 138.771 83.677 139.371 83.7512 140.075C83.8233 140.76 83.8559 141.35 83.9307 142.035C84.0173 142.829 84.0879 143.511 84.2122 144.3C84.3227 145.001 84.5039 145.587 84.601 146.29C84.8181 147.862 84.9176 149.221 85.1092 150.797C85.2021 151.56 85.3204 152.209 85.4137 152.972C85.4774 153.492 85.5272 153.94 85.5576 154.463C85.6208 155.551 85.6306 156.486 85.6811 157.574C85.7061 158.115 85.7959 158.577 85.7733 159.118C85.6883 161.158 85.5406 162.902 85.3741 164.937C85.333 165.439 85.2265 165.861 85.1804 166.363C85.1036 167.198 85.1386 167.923 85.0232 168.754C84.7581 170.661 84.4735 172.288 84.0945 174.175C83.981 174.74 83.7965 175.204 83.618 175.753C83.335 176.622 83.087 177.366 82.776 178.226C82.5531 178.842 82.333 179.359 82.0931 179.969C81.846 180.597 81.6559 181.145 81.3847 181.763C81.021 182.591 80.7125 183.305 80.2801 184.099C79.4857 185.559 78.904 186.887 77.8825 188.198C76.5117 189.958 75.0499 191.221 73.4897 192.815C73.12 193.193 72.7684 193.481 72.3709 193.829C71.7712 194.354 71.2517 194.799 70.6409 195.311C70.0344 195.82 69.5391 196.289 68.8929 196.747C67.5452 197.701 66.3553 198.47 64.951 199.339C64.4762 199.633 64.0551 199.875 63.5301 200.065C62.0179 200.613 60.7233 201.128 59.146 201.443C57.9636 201.679 56.9114 201.598 55.706 201.627C55.0824 201.642 54.5464 201.619 53.9248 201.567C52.3866 201.438 51.0702 201.299 49.5382 201.11C49.2235 201.071 48.9649 200.974 48.6531 200.916C48.3566 200.861 48.0964 200.848 47.8013 200.786C47.3864 200.699 47.0374 200.596 46.6267 200.49C45.957 200.319 45.3853 200.162 44.7144 199.995C44.5324 199.95 44.3698 199.938 44.1904 199.883C43.8207 199.77 43.5053 199.666 43.1485 199.517C42.9848 199.449 42.8667 199.346 42.7086 199.266C42.3623 199.09 42.0452 198.979 41.7081 198.786C41.5021 198.668 41.356 198.521 41.1634 198.382C40.9197 198.206 40.7094 198.057 40.4616 197.887C40.0127 197.579 39.618 197.329 39.1731 197.015C38.833 196.775 38.5553 196.55 38.2191 196.305C37.6942 195.922 37.2225 195.622 36.713 195.219C36.0743 194.713 35.5433 194.257 34.9411 193.709C34.3945 193.211 33.9517 192.756 33.4325 192.229C33.0612 191.852 32.7524 191.52 32.3972 191.128C32.1891 190.899 32.0262 190.689 31.8236 190.454C31.6292 190.229 31.452 190.045 31.2629 189.816C31.0786 189.592 30.935 189.389 30.7574 189.16C30.5795 188.931 30.4214 188.738 30.2474 188.506C30.0638 188.261 29.9137 188.045 29.7359 187.796C29.4329 187.371 29.1703 187.008 28.8737 186.579C28.6447 186.247 28.4527 185.959 28.2341 185.621C27.9914 185.244 27.7901 184.917 27.556 184.536C27.3842 184.255 27.1418 183.853 26.829 183.329L12.3442 158.24C11.9093 157.458 11.5761 156.855 11.3447 156.432C11.0102 155.821 10.7235 155.297 10.3968 154.682C10.1988 154.309 10.0374 153.985 9.84565 153.609C9.68283 153.29 9.53856 153.018 9.38377 152.695C9.2235 152.36 9.1 152.067 8.94569 151.729C8.79738 151.405 8.67011 151.127 8.51913 150.804C8.29332 150.32 8.08261 149.914 7.86917 149.425C7.73179 149.11 7.64507 148.827 7.51744 148.509C7.39317 148.198 7.2786 147.935 7.14952 147.627C7.01336 147.301 6.88716 147.026 6.75961 146.698C6.62837 146.359 6.52402 146.066 6.41039 145.721C6.3015 145.391 6.21731 145.105 6.12405 144.77C6.03564 144.452 5.97821 144.175 5.89144 143.857C5.73121 143.27 5.55381 142.777 5.41837 142.183C5.33039 141.798 5.30197 141.458 5.25437 141.065C5.20164 140.63 5.16167 140.257 5.1318 139.82C5.11905 139.633 5.13231 139.472 5.13272 139.285C5.13312 139.096 5.13337 138.933 5.13412 138.744C5.13488 138.551 5.13532 138.385 5.13701 138.192C5.15658 135.941 5.16855 134.011 5.19485 131.76C5.19711 131.567 5.20452 131.401 5.21859 131.208C5.25032 130.773 5.28044 130.4 5.32567 129.966C5.34551 129.776 5.36149 129.611 5.40443 129.425C5.51665 128.938 5.61294 128.519 5.7684 128.044C5.86586 127.746 6.01254 127.515 6.12509 127.222C6.20346 127.019 6.22264 126.826 6.3132 126.628C6.48807 126.244 6.67258 125.932 6.88058 125.566C6.97045 125.408 7.0596 125.279 7.1636 125.129C7.33227 124.887 7.46328 124.668 7.6594 124.447C8.00393 124.059 8.31304 123.736 8.70409 123.396C8.88782 123.235 9.08559 123.152 9.29262 123.023C9.42116 122.944 9.52632 122.865 9.66281 122.8C9.85064 122.71 10.0241 122.662 10.2161 122.581C10.3509 122.525 10.4569 122.452 10.5965 122.409C10.7588 122.358 10.9072 122.352 11.073 122.314C11.235 122.277 11.3692 122.225 11.5326 122.195C11.6853 122.167 11.8184 122.15 11.9735 122.147C12.2195 122.141 12.4303 122.161 12.6762 122.169C12.8461 122.174 12.9918 122.176 13.1615 122.185C13.639 122.21 14.0483 122.231 14.5253 122.264C14.6999 122.276 14.8491 122.293 15.0228 122.314C15.1947 122.335 15.3419 122.355 15.5126 122.384C15.6816 122.413 15.8257 122.443 15.993 122.481C16.2541 122.54 16.469 122.645 16.7362 122.662C17.5544 122.715 18.2589 122.675 19.0788 122.681C19.4713 122.684 19.8077 122.685 20.2002 122.687C22.5023 122.7 24.4756 122.706 26.7776 122.726C27.3075 122.73 27.7626 122.722 28.2914 122.756C29.5736 122.838 30.6713 122.931 31.9501 123.056C32.4461 123.105 32.8625 123.234 33.3606 123.252C36.2455 123.356 38.7231 123.281 41.6072 123.407C42.1204 123.429 42.5493 123.56 43.0506 123.673C43.2723 123.722 43.4537 123.797 43.6694 123.869C43.9 123.945 44.0889 124.04 44.3254 124.095C44.9938 124.25 45.5719 124.364 46.2501 124.47C46.7213 124.543 47.1321 124.551 47.6059 124.605C48.1212 124.663 48.5575 124.782 49.076 124.789C51.532 124.82 53.6371 124.702 56.0932 124.711C58.4679 124.719 60.5025 124.796 62.8768 124.839C63.6734 124.854 64.3567 124.846 65.153 124.874C66.5985 124.925 67.8373 124.979 69.2812 125.064C69.6766 125.087 70.0153 125.122 70.4065 125.184C71.3541 125.334 72.1703 125.45 73.1043 125.669C74.2797 125.945 75.243 126.36 76.4267 126.598C77.9247 126.9 79.2322 127.03 80.7499 127.208C81.3731 127.281 81.9132 127.278 82.5395 127.317C83.5178 127.378 84.3548 127.462 85.3345 127.495C86.2873 127.528 87.1051 127.491 88.0583 127.505C92.9773 127.581 97.1939 127.635 102.112 127.755C103.283 127.783 104.284 127.885 105.455 127.927C105.89 127.942 106.263 127.921 106.699 127.919C109.837 127.904 112.527 127.949 115.665 127.88C118.594 127.814 121.106 127.741 124.029 127.533C125.7 127.414 127.123 127.202 128.778 126.945C129.67 126.807 130.416 126.593 131.299 126.407C132.437 126.166 133.409 125.945 134.552 125.726C134.993 125.641 135.376 125.597 135.821 125.54C137.923 125.27 139.734 125.111 141.829 124.79C142.201 124.733 142.487 124.548 142.853 124.462C143.24 124.371 143.578 124.287 143.976 124.286C147.419 124.275 150.371 124.322 153.812 124.426C155.592 124.48 157.12 124.538 158.89 124.737C160.231 124.888 161.362 125.16 162.685 125.426C163.051 125.5 163.352 125.611 163.712 125.709C163.959 125.776 164.173 125.827 164.418 125.899C164.68 125.976 164.91 126.03 165.162 126.134C165.331 126.205 165.471 126.283 165.615 126.396C165.722 126.479 165.859 126.617 166.025 126.809L180.662 152.161C180.959 152.494 181.157 152.768 181.255 152.983C181.586 153.71 181.765 154.375 182.015 155.133C182.19 155.666 182.313 156.131 182.469 156.67C182.621 157.193 182.732 157.648 182.897 158.168C183.065 158.701 183.243 159.147 183.42 159.678C183.511 159.949 183.562 160.189 183.662 160.456C183.821 160.881 183.993 161.231 184.16 161.653C184.339 162.103 184.48 162.494 184.651 162.947C184.763 163.241 184.846 163.498 184.968 163.787C185.099 164.094 185.229 164.349 185.374 164.65C185.582 165.08 185.766 165.446 185.976 165.875C186.112 166.154 186.231 166.391 186.361 166.672C186.57 167.127 186.739 167.522 186.943 167.979C187.158 168.457 187.338 168.869 187.557 169.345C187.826 169.929 188.06 170.428 188.336 171.008C188.409 171.163 188.517 171.381 188.659 171.665L174.068 146.392C174.206 146.647 174.315 146.843 174.393 146.978C177.798 152.882 182.667 161.314 188.998 172.275C189.152 172.515 189.269 172.702 189.347 172.834C189.52 173.129 189.678 173.378 189.828 173.686C190.053 174.151 190.216 174.564 190.417 175.041C190.602 175.478 190.762 175.853 190.93 176.297C191.117 176.79 191.272 177.215 191.432 177.717C191.628 178.328 191.78 178.856 191.946 179.476C192.141 180.201 192.315 180.821 192.462 181.558C192.725 182.873 193.069 183.994 193.117 185.335C193.198 187.617 193.021 189.577 192.829 191.853C192.736 192.961 192.599 193.914 192.303 194.985C192.14 195.574 191.814 196.009 191.532 196.551C191.309 196.98 191.104 197.341 190.861 197.759C190.696 198.042 190.545 198.279 190.366 198.554C190.18 198.84 190.012 199.079 189.819 199.36C189.622 199.65 189.454 199.898 189.254 200.185C189.05 200.478 188.879 200.733 188.664 201.019C188.31 201.488 187.993 201.881 187.627 202.341C187.384 202.648 187.172 202.908 186.923 203.211C186.659 203.532 186.427 203.802 186.16 204.121C185.904 204.426 185.693 204.694 185.431 204.992C184.426 206.137 183.583 207.135 182.541 208.246C182.261 208.544 181.977 208.754 181.66 209.012C181.45 209.184 181.258 209.317 181.036 209.474C180.648 209.748 180.318 209.987 179.919 210.244C179.62 210.436 179.357 210.589 179.044 210.757C178.736 210.922 178.466 211.052 178.147 211.195C177.813 211.344 177.528 211.477 177.181 211.591C176.155 211.927 175.272 212.209 174.226 212.48C173.282 212.723 172.457 212.866 171.501 213.058C171.183 213.122 170.905 213.151 170.586 213.212C170.175 213.291 169.828 213.386 169.416 213.459C169.154 213.505 168.925 213.52 168.66 213.551C168.369 213.585 168.121 213.657 167.829 213.646C165.875 213.579 164.204 213.459 162.253 213.331C161.889 213.307 161.575 213.289 161.218 213.214C160.169 212.993 159.282 212.75 158.243 212.486C157.933 212.407 157.662 212.352 157.364 212.234C156.936 212.066 156.59 211.872 156.177 211.671C155.905 211.538 155.676 211.42 155.408 211.281C154.986 211.063 154.617 210.889 154.206 210.653C153.913 210.485 153.682 210.308 153.398 210.126C152.864 209.784 152.398 209.505 151.869 209.157C151.591 208.974 151.351 208.818 151.092 208.609C150.843 208.408 150.64 208.22 150.421 207.986C150.283 207.838 150.102 207.614 149.877 207.313L135.308 182.078C134.926 181.418 134.647 180.902 134.471 180.531C134.327 180.225 134.26 179.939 134.148 179.62C134.03 179.287 133.906 179.008 133.815 178.667C133.683 178.172 133.566 177.745 133.512 177.236C133.41 176.282 133.43 175.456 133.371 174.499C133.359 174.31 133.335 174.149 133.309 173.962C133.283 173.771 133.259 173.607 133.224 173.417C133.189 173.222 133.145 173.058 133.109 172.862C133.057 172.575 133 172.33 132.975 172.039C132.9 171.156 132.937 170.391 132.824 169.512C132.713 168.654 132.496 167.94 132.336 167.09C132.303 166.915 132.3 166.762 132.274 166.586C132.247 166.412 132.233 166.26 132.186 166.09C132.102 165.792 131.997 165.548 131.901 165.254C131.865 165.142 131.835 165.045 131.808 164.93C131.767 164.752 131.75 164.597 131.707 164.42C131.688 164.342 131.653 164.232 131.602 164.091L146.254 189.468C146.197 189.355 146.152 189.269 146.118 189.21C142.701 183.286 137.816 174.826 131.464 163.828C131.387 163.713 131.337 163.621 131.315 163.551C131.274 163.426 131.235 163.242 131.197 162.999L145.848 188.375C145.768 188.131 145.694 187.949 145.626 187.83C142.221 181.895 137.334 173.43 130.964 162.435C130.896 162.344 130.849 162.27 130.825 162.215C130.806 162.172 130.816 162.129 130.808 162.083C130.793 161.999 130.781 161.927 130.761 161.845C130.713 161.65 130.683 161.48 130.614 161.292C130.536 161.079 130.431 160.913 130.344 160.704C130.304 160.606 130.278 160.518 130.252 160.415C130.133 159.935 130.03 159.524 129.932 159.039C129.897 158.861 129.883 158.706 129.873 158.525C129.8 157.196 129.774 156.055 129.695 154.726C129.683 154.522 129.647 154.35 129.614 154.149C129.58 153.938 129.543 153.758 129.506 153.548C129.466 153.325 129.413 153.136 129.394 152.911C129.375 152.673 129.398 152.467 129.399 152.229C129.402 151.383 129.4 150.658 129.404 149.813C129.415 147.304 129.361 145.153 129.441 142.646C129.529 139.897 129.742 137.547 129.886 134.801C129.936 133.835 129.999 133.007 129.997 132.04C129.987 127.784 129.979 124.135 129.851 119.881C129.814 118.645 129.57 117.598 129.528 116.362C129.418 113.155 129.439 110.404 129.419 107.195C129.412 106.118 129.437 105.196 129.45 104.119C129.454 103.831 129.458 103.584 129.466 103.296C129.478 102.847 129.471 102.462 129.508 102.014C129.609 100.782 129.723 99.7288 129.859 98.5003C129.894 98.1827 129.973 97.9164 129.996 97.5976C130.186 94.9937 130.293 92.758 130.466 90.1529C130.511 89.4786 130.586 88.9031 130.619 88.2281C130.836 83.7735 131.057 79.9562 131.179 75.4981C131.275 71.9961 131.306 68.9916 131.242 65.4889C131.231 64.9152 131.076 64.436 130.966 63.8728C130.931 63.6945 130.849 63.5526 130.829 63.372C130.719 62.3605 130.738 61.4819 130.598 60.4742C130.429 59.2659 130.195 58.2443 129.947 57.0498C129.872 56.6902 129.767 56.3917 129.676 56.0359C129.579 55.6553 129.494 55.3292 129.407 54.9459C129.327 54.5915 129.28 54.2832 129.201 53.9285C129.121 53.5701 129.027 53.2688 128.954 52.909C128.876 52.5286 128.842 52.1966 128.77 51.815C128.702 51.453 128.619 51.1475 128.555 50.7848C128.429 50.0711 128.355 49.4534 128.226 48.7401C128.161 48.3811 128.076 48.0794 128 47.7224C127.78 46.6781 127.596 45.7821 127.382 44.7365C127.314 44.4011 127.266 44.1114 127.194 43.7767C127.123 43.4459 127.035 43.1681 126.974 42.8354C126.91 42.4855 126.889 42.1804 126.836 41.8285C126.722 41.062 126.586 40.4104 126.499 39.6403C126.441 39.1201 126.397 38.6694 126.423 38.1465C126.507 36.4364 126.638 34.9733 126.815 33.2703C126.887 32.5773 127.007 31.9904 127.134 31.3054C127.365 30.0683 127.562 29.0075 127.837 27.7794C127.935 27.3397 128.083 26.9795 128.198 26.5437C128.326 26.0571 128.388 25.6277 128.529 25.1448C129.233 22.7451 129.765 20.6633 130.611 18.31C130.952 17.3623 131.436 16.6308 131.909 15.7421C132.079 15.4245 132.238 15.1583 132.447 14.8657C133.395 13.543 134.211 12.4106 135.215 11.1297C135.629 10.6014 136.036 10.1915 136.494 9.70104C136.797 9.37669 137.045 9.0837 137.388 8.80229C138.514 7.87919 139.468 7.06516 140.684 6.26493C141.806 5.52703 142.822 4.96914 144.047 4.4207C144.607 4.17021 145.139 4.07159 145.748 3.99863C146.327 3.92921 146.835 3.94456 147.414 4.01717C148.272 4.12482 149.01 4.25119 149.835 4.51142C150.504 4.72237 151.038 5.01646 151.652 5.35438C152.186 5.64812 152.597 5.9773 153.107 6.31129C153.631 6.65469 154.08 6.94914 154.606 7.28977C154.962 7.52028 155.275 7.70624 155.626 7.9431C155.962 8.16939 156.234 8.38648 156.57 8.61268C157.038 8.92742 157.453 9.17621 157.922 9.4883C158.608 9.94422 159.197 10.3339 159.871 10.8069C160.257 11.0777 160.579 11.3221 160.95 11.6129C161.189 11.7996 161.375 11.9815 161.611 12.1704C161.855 12.3648 162.069 12.5247 162.321 12.7077C162.71 12.9905 163.044 13.2347 163.445 13.5011C163.712 13.679 163.954 13.8128 164.231 13.9764C164.512 14.143 164.755 14.2832 165.04 14.4443C165.313 14.599 165.553 14.7224 165.825 14.8787C166.075 15.0218 166.288 15.1449 166.531 15.2998C166.781 15.46 166.987 15.6112 167.233 15.7784C167.473 15.9416 167.675 16.0867 167.919 16.2438C168.165 16.4023 168.384 16.5255 168.632 16.6799C168.885 16.837 169.104 16.9688 169.352 17.1339C169.602 17.3004 169.813 17.4485 170.055 17.627C170.543 17.9876 170.959 18.2996 171.436 18.674C171.677 18.8626 171.875 19.0351 172.106 19.235C172.557 19.6251 172.952 19.9499 173.385 20.3598C173.966 20.9091 174.472 21.3749 175 21.9745C175.645 22.7068 176.133 23.3895 176.733 24.159C177.069 24.5896 177.351 24.9642 177.675 25.4033C177.893 25.6977 178.072 25.956 178.284 26.2545C178.508 26.5694 178.701 26.8384 178.921 27.156C179.463 27.9368 179.937 28.5995 180.46 29.3926C180.789 29.8903 181.037 30.3382 181.354 30.843C181.495 31.0673 181.701 31.3851 181.971 31.7963L196.5 56.9616C197.14 58.1 197.576 58.9994 197.806 59.6596C198.232 60.8768 198.428 61.9735 198.693 63.2354C198.774 63.6221 198.8 63.9647 198.794 64.3598C198.762 66.2581 198.684 67.8843 198.585 69.7803C198.571 70.0467 198.529 70.2739 198.469 70.5336C198.355 71.0181 198.248 71.4322 198.088 71.9034C198.005 72.147 197.904 72.3456 197.778 72.5699C197.643 72.8096 197.49 72.9919 197.345 73.2256C197.177 73.4971 197.054 73.743 196.883 74.0128C196.611 74.442 196.374 74.8082 196.078 75.2219C195.631 75.848 195.249 76.3865 194.763 76.9827C194.185 77.6911 193.647 78.2623 193.041 78.9463C192.574 79.4735 192.191 79.9424 191.695 80.4433C191.464 80.6765 191.222 80.8275 190.972 81.0387C190.387 81.5311 189.903 81.9741 189.307 82.4534C189.087 82.6304 188.879 82.7575 188.643 82.9121C188.398 83.072 188.184 83.2015 187.933 83.3514C187.69 83.4969 187.483 83.6254 187.232 83.7559C186.966 83.8938 186.738 84.0151 186.457 84.1177C185.479 84.4745 184.645 84.8016 183.638 85.067C182.669 85.3226 181.824 85.5269 180.825 85.603C178.55 85.7764 176.59 85.7792 174.308 85.7778C171.278 85.7759 168.683 85.6423 165.653 85.5935C164.238 85.5707 163.025 85.5503 161.61 85.573C158.404 85.6244 155.658 85.7416 152.452 85.805C151.519 85.8235 150.718 85.808 149.784 85.8067C147.327 85.8035 145.221 85.7982 142.763 85.7921C142.292 85.7909 141.887 85.7912 141.416 85.786C141.08 85.7822 140.792 85.7812 140.456 85.7664C137.084 85.6181 134.193 85.5059 130.822 85.3199C129.932 85.2708 129.175 85.1394 128.284 85.0946C126.446 85.0022 124.866 85.0169 123.028 84.9279C118.62 84.7144 114.842 84.5351 110.439 84.2305C109.009 84.1315 107.8 83.8228 106.367 83.7751C103.969 83.6952 101.912 83.8048 99.5135 83.8667C97.3264 83.9231 95.4551 84.1396 93.2674 84.1131C90.8602 84.084 88.7934 83.9765 86.4011 83.7078C84.8052 83.5286 83.4507 83.2396 81.8962 82.8363C79.9012 82.3187 78.2729 81.5881 76.2754 81.0806C73.2303 80.3069 70.5856 79.7831 67.5023 79.1793C66.8826 79.0579 66.3367 79.041 65.706 79.0107C64.8407 78.9692 64.0973 78.9565 63.2312 78.9745C61.2698 79.0152 59.5901 79.1029 57.6298 79.1783C57.6191 79.1788 57.6044 79.1832 57.5858 79.1918L57.5858 79.1918C57.5858 79.1918 55.1358 74.9483 50.2358 66.4612Z" sodipodi:nodetypes="ccccccccccccccccccccccccccccccccccccccccccccccccccccccccccccccccccccccccccccccccccccccccccccccccccccccccccccccccccccccccccccccccccccccccccccccccccccccccccccccccccccccccccccccccccccccccccccccccccccccccccccccccccccccccccccccccccccccccccccccccccccccccccccccccccccccccccccccccccccccccccccccccccccccccccccccccccccccccccccccccccccccccccccccccccccccccccccccccccccccccccccccccccccccccccccccccccccccccccccccccccccccccccccccccccccccccccccccccccccccccccccccccccccccccccccccccccccccccccccccccccccccccccccccccccccccccccccccccccccccccccccccccccccccccccccccccccccccccccccccccccccccccccccccccccccccccccccccccccccccccccccccccccccccccccccccccccccccccccccccccccccccccccccccccccccccccccccccccccccccccccccccccccccccccccccccccccccccccccccccccccccccccccccccccccccccccccccccccccccccccccccccccccccccccccccccccccccccccccccccccccccccccccccccccccccccccccccccccccccccccccccccccccccccccccccccccccccccccccccccccccccccccccccccccccccccccccccccccccccccccccccccccccccccccccccccccccccccccccccccccccccccccccccccccccc"/>
</svg>
