<?xml version="1.0" standalone="no"?>
<!DOCTYPE svg PUBLIC "-//W3C//DTD SVG 20010904//EN" "http://www.w3.org/TR/2001/REC-SVG-20010904/DTD/svg10.dtd">
<!-- Created using Krita: https://krita.org -->
<svg xmlns="http://www.w3.org/2000/svg" 
    xmlns:xlink="http://www.w3.org/1999/xlink"
    xmlns:krita="http://krita.org/namespaces/svg/krita"
    xmlns:sodipodi="http://sodipodi.sourceforge.net/DTD/sodipodi-0.dtd"
    width="336pt"
    height="336pt"
    viewBox="0 0 336 336">
<defs/>
<g id="group0" transform="translate(85.8012497794576, 24.2554719389467)" fill="none">
  <path id="shape0" fill="#000000" d="M86.9383 12.7306C91.8383 21.2176 94.2883 25.4611 94.2883 25.4611C94.2331 25.4631 94.1926 25.4703 94.1666 25.483C93.7136 25.7038 93.3232 25.8909 92.8873 26.1439C92.3523 26.4544 91.9176 26.7598 91.3953 27.0913C90.5846 27.6058 89.8801 28.0321 89.0786 28.561C84.3375 31.6896 80.1796 34.2359 75.5597 37.541C69.2543 42.0519 63.6768 45.7375 57.8772 50.8824C53.346 54.9021 50.1678 59.0769 46.1619 63.6203C45.0357 64.8977 44.1132 66.0467 43.2255 67.5001C38.7003 74.9089 34.6121 81.1602 30.7115 88.9161C26.9001 96.4948 24.1399 103.254 21.2359 111.225C19.6197 115.661 18.8887 119.676 17.8285 124.276C17.152 127.212 16.7606 129.77 16.2771 132.744C16.0552 134.109 15.9528 135.292 15.814 136.668C15.6644 138.151 15.587 139.427 15.4532 140.912C15.3664 141.875 15.2428 142.697 15.184 143.662C14.938 147.698 14.7458 151.159 14.5826 155.2C14.5067 157.079 14.5218 158.692 14.5009 160.572C14.489 161.646 14.4693 162.567 14.4888 163.641C14.5706 168.143 14.4429 172.013 14.7903 176.503C15.0131 179.381 15.5975 181.804 16.1143 184.645C16.2871 185.595 16.5255 186.39 16.7595 187.327C16.9772 188.198 17.1874 188.939 17.4049 189.81C18.0757 192.496 18.5339 194.83 19.2976 197.492C20.094 200.267 20.8643 202.623 21.8594 205.333C22.4061 206.822 22.9682 208.066 23.6974 209.475C25.079 212.144 27.1329 215.913 29.8591 220.785L15.5319 195.969C16.0632 196.84 16.472 197.51 16.7584 197.979C17.3234 198.904 17.8019 199.701 18.3737 200.622C18.7208 201.181 19.0282 201.654 19.3838 202.208C19.7383 202.76 20.0361 203.237 20.4025 203.781C20.928 204.562 21.3922 205.222 21.9319 205.992C22.6129 206.964 23.1913 207.802 23.8904 208.761C24.5348 209.646 25.0829 210.408 25.7702 211.26C26.5566 212.234 27.2361 213.068 28.0988 213.976C28.3731 214.264 28.7072 214.399 29.0051 214.663C29.1933 214.83 29.3772 214.972 29.4812 215.201C29.764 215.823 30.103 216.739 30.4982 217.949L44.9683 243.012C45.2466 243.791 45.4876 244.378 45.6913 244.773C46.7156 246.758 48.2275 249.567 50.2271 253.202L35.9855 228.534C39.5086 233.618 42.3043 237.464 44.3726 240.072C46.3715 242.592 48.3573 244.523 50.5406 246.885C51.2333 247.634 51.8632 248.243 52.5883 248.961C53.0204 249.388 53.4148 249.731 53.8467 250.159C54.2119 250.521 54.5056 250.85 54.8652 251.217C55.3199 251.682 55.7066 252.084 56.1733 252.536C56.4128 252.769 56.6429 252.942 56.8822 253.174C57.0796 253.366 57.2281 253.551 57.4199 253.748C57.5941 253.927 57.7431 254.081 57.9278 254.25C58.1706 254.471 58.3979 254.639 58.6405 254.86C58.785 254.992 58.8897 255.125 59.0331 255.258C59.1525 255.369 59.276 255.441 59.3903 255.557C59.4966 255.665 59.5683 255.775 59.6602 255.895C59.7286 255.985 59.7701 256.075 59.848 256.157C59.9265 256.239 60.024 256.276 60.1026 256.357C60.2171 256.476 60.2875 256.602 60.3962 256.727C60.4766 256.819 60.597 256.945 60.7572 257.106L75.405 282.477C75.2485 282.323 75.1313 282.202 75.0535 282.114C74.9426 281.988 74.8719 281.859 74.7557 281.737C74.6774 281.655 74.5787 281.62 74.5013 281.537C74.4167 281.447 74.372 281.347 74.2976 281.248C74.2045 281.124 74.1302 281.013 74.023 280.901C73.902 280.775 73.7749 280.692 73.6481 280.572C73.5065 280.438 73.3994 280.308 73.2565 280.176C73.0045 279.942 72.7722 279.759 72.5204 279.525C72.3343 279.352 72.1815 279.196 72.0061 279.012C71.8048 278.801 71.65 278.603 71.4443 278.396C71.1935 278.144 70.9541 277.954 70.7027 277.702C70.2188 277.218 69.8172 276.79 69.3441 276.296C68.9748 275.909 68.6721 275.565 68.296 275.185C67.855 274.74 67.4505 274.386 67.0103 273.94C66.257 273.177 65.6117 272.523 64.8867 271.733C62.7045 269.357 60.7063 267.426 58.7047 264.896C56.6138 262.253 53.7879 258.355 50.2271 253.202L35.9855 228.534C33.929 224.799 32.3724 221.912 31.3159 219.874C31.0913 219.441 30.8187 218.799 30.4982 217.949L44.9683 243.012C44.6244 241.89 44.3242 241.041 44.0675 240.465C43.9671 240.24 43.7815 240.105 43.5986 239.94C43.2856 239.657 42.9426 239.498 42.6556 239.189C41.7627 238.227 41.058 237.348 40.2396 236.322C39.5396 235.444 38.9794 234.661 38.3193 233.753C37.6245 232.797 37.0462 231.965 36.3687 230.997C35.821 230.215 35.3517 229.544 34.8187 228.751C34.4522 228.206 34.1536 227.728 33.7989 227.176C33.4394 226.615 33.1287 226.137 32.7781 225.571C32.1858 224.615 31.6904 223.788 31.1049 222.828C30.8141 222.351 30.3989 221.67 29.8591 220.785L15.5319 195.969C12.8511 191.175 10.8314 187.464 9.47297 184.837C8.73817 183.417 8.17652 182.16 7.61551 180.662C6.54732 177.809 5.67079 175.345 4.82253 172.42C4.07697 169.849 3.68855 167.579 3.06686 164.976C2.86653 164.137 2.67805 163.422 2.47393 162.583C2.24613 161.648 2.00788 160.855 1.83281 159.909C1.30159 157.036 0.705253 154.587 0.456871 151.676C0.0664813 147.102 0.133576 143.155 0.0115078 138.566C-0.016998 137.494 0.0149912 136.574 0.0267111 135.502C0.0472972 133.619 0.00567522 132.002 0.10381 130.122C0.308812 126.193 0.59291 122.831 0.892521 118.909C0.96584 117.949 1.08268 117.131 1.16925 116.172C1.30362 114.683 1.38281 113.404 1.52376 111.917C1.65614 110.519 1.72646 109.315 1.95015 107.929C2.42813 104.968 2.7778 102.41 3.52718 99.5057C4.65985 95.116 5.65985 91.3393 7.31935 87.1205C10.3902 79.3137 13.258 72.7007 17.0206 65.2026C20.9539 57.3642 24.836 50.9099 29.2831 43.351C30.1508 41.8761 31.0564 40.7017 32.1896 39.4195C36.1948 34.8876 39.4407 30.7895 43.9485 26.7572C49.7353 21.5808 55.269 17.8228 61.5046 13.1968C66.0755 9.80589 70.1878 7.16967 74.8161 3.85764C75.6055 3.29278 76.219 2.72555 76.9798 2.12283C77.4688 1.73544 77.9021 1.42125 78.3871 1.02882C78.7849 0.706918 79.1129 0.415253 79.5016 0.0823563C79.5228 0.0642042 79.5517 0.0367521 79.5883 9.14015e-15L79.5883 9.14015e-15C79.5883 -2.2741e-07 82.0383 4.24352 86.9383 12.7306Z" sodipodi:nodetypes="ccccccccccccccccccccccccccccccccccccccccccccccccccccccccccccccccccccccccccccccccccccccccccccccccccccccccccccccccccccccccccc"/>
  <path id="shape0" transform="matrix(-1.00000001751071 0 0 -1.00000001751071 163.83341260093 284.983030534239)" fill="#000000" stroke-opacity="0" stroke="#000000" stroke-width="0" stroke-linecap="square" stroke-linejoin="bevel" d="M86.9383 12.7306C91.8383 21.2176 94.2883 25.4611 94.2883 25.4611C94.2331 25.4631 94.1926 25.4703 94.1666 25.483C93.7136 25.7038 93.3232 25.8909 92.8873 26.1439C92.3523 26.4544 91.9176 26.7598 91.3953 27.0913C90.5846 27.6058 89.8801 28.0321 89.0786 28.561C84.3375 31.6896 80.1796 34.2359 75.5597 37.541C69.2543 42.0519 63.6768 45.7375 57.8772 50.8824C53.346 54.9021 50.1678 59.0769 46.1619 63.6203C45.0357 64.8977 44.1132 66.0467 43.2255 67.5001C38.7003 74.9089 34.6121 81.1602 30.7115 88.9161C26.9001 96.4948 24.1399 103.254 21.2359 111.225C19.6197 115.661 18.8887 119.676 17.8285 124.276C17.152 127.212 16.7606 129.77 16.2771 132.744C16.0552 134.109 15.9528 135.292 15.814 136.668C15.6644 138.151 15.587 139.427 15.4532 140.912C15.3664 141.875 15.2428 142.697 15.184 143.662C14.938 147.698 14.7458 151.159 14.5826 155.2C14.5067 157.079 14.5218 158.692 14.5009 160.572C14.489 161.646 14.4693 162.567 14.4888 163.641C14.5706 168.143 14.4429 172.013 14.7903 176.503C15.0131 179.381 15.5975 181.804 16.1143 184.645C16.2871 185.595 16.5255 186.39 16.7595 187.327C16.9772 188.198 17.1874 188.939 17.4049 189.81C18.0757 192.496 18.5339 194.83 19.2976 197.492C20.094 200.267 20.8643 202.623 21.8594 205.333C22.4061 206.822 22.9682 208.066 23.6974 209.475C25.079 212.144 27.1329 215.913 29.8591 220.785L15.5319 195.969C16.0632 196.84 16.472 197.51 16.7584 197.979C17.3234 198.904 17.8019 199.701 18.3737 200.622C18.7208 201.181 19.0282 201.654 19.3838 202.208C19.7383 202.76 20.0361 203.237 20.4025 203.781C20.928 204.562 21.3922 205.222 21.9319 205.992C22.6129 206.964 23.1913 207.802 23.8904 208.761C24.5348 209.646 25.0829 210.408 25.7702 211.26C26.5566 212.234 27.2361 213.068 28.0988 213.976C28.3731 214.264 28.7072 214.399 29.0051 214.663C29.1933 214.83 29.3772 214.972 29.4812 215.201C29.764 215.823 30.103 216.739 30.4982 217.949L44.9683 243.012C45.2466 243.791 45.4876 244.378 45.6913 244.773C46.7156 246.758 48.2275 249.567 50.2271 253.202L35.9855 228.534C39.5086 233.618 42.3043 237.464 44.3726 240.072C46.3715 242.592 48.3573 244.523 50.5406 246.885C51.2333 247.634 51.8632 248.243 52.5883 248.961C53.0204 249.388 53.4148 249.731 53.8467 250.159C54.2119 250.521 54.5056 250.85 54.8652 251.217C55.3199 251.682 55.7066 252.084 56.1733 252.536C56.4128 252.769 56.6429 252.942 56.8822 253.174C57.0796 253.366 57.2281 253.551 57.4199 253.748C57.5941 253.927 57.7431 254.081 57.9278 254.25C58.1706 254.471 58.3979 254.639 58.6405 254.86C58.785 254.992 58.8897 255.125 59.0331 255.258C59.1525 255.369 59.276 255.441 59.3903 255.557C59.4966 255.665 59.5683 255.775 59.6602 255.895C59.7286 255.985 59.7701 256.075 59.848 256.157C59.9265 256.239 60.024 256.276 60.1026 256.357C60.2171 256.476 60.2875 256.602 60.3962 256.727C60.4766 256.819 60.597 256.945 60.7572 257.106L75.405 282.477C75.2485 282.323 75.1313 282.202 75.0535 282.114C74.9426 281.988 74.8719 281.859 74.7557 281.737C74.6774 281.655 74.5787 281.62 74.5013 281.537C74.4167 281.447 74.372 281.347 74.2976 281.248C74.2045 281.124 74.1302 281.013 74.023 280.901C73.902 280.775 73.7749 280.692 73.6481 280.572C73.5065 280.438 73.3994 280.308 73.2565 280.176C73.0045 279.942 72.7722 279.759 72.5204 279.525C72.3343 279.352 72.1815 279.196 72.0061 279.012C71.8048 278.801 71.65 278.603 71.4443 278.396C71.1935 278.144 70.9541 277.954 70.7027 277.702C70.2188 277.218 69.8172 276.79 69.3441 276.296C68.9748 275.909 68.6721 275.565 68.296 275.185C67.855 274.74 67.4505 274.386 67.0103 273.94C66.257 273.177 65.6117 272.523 64.8867 271.733C62.7045 269.357 60.7063 267.426 58.7047 264.896C56.6138 262.253 53.7879 258.355 50.2271 253.202L35.9855 228.534C33.929 224.799 32.3724 221.912 31.3159 219.874C31.0913 219.441 30.8187 218.799 30.4982 217.949L44.9683 243.012C44.6244 241.89 44.3242 241.041 44.0675 240.465C43.9671 240.24 43.7815 240.105 43.5986 239.94C43.2856 239.657 42.9426 239.498 42.6556 239.189C41.7627 238.227 41.058 237.348 40.2396 236.322C39.5396 235.444 38.9794 234.661 38.3193 233.753C37.6245 232.797 37.0462 231.965 36.3687 230.997C35.821 230.215 35.3517 229.544 34.8187 228.751C34.4522 228.206 34.1536 227.728 33.7989 227.176C33.4394 226.615 33.1287 226.137 32.7781 225.571C32.1858 224.615 31.6904 223.788 31.1049 222.828C30.8141 222.351 30.3989 221.67 29.8591 220.785L15.5319 195.969C12.8511 191.175 10.8314 187.464 9.47297 184.837C8.73817 183.417 8.17652 182.16 7.61551 180.662C6.54732 177.809 5.67079 175.345 4.82253 172.42C4.07697 169.849 3.68855 167.579 3.06686 164.976C2.86653 164.137 2.67805 163.422 2.47393 162.583C2.24613 161.648 2.00788 160.855 1.83281 159.909C1.30159 157.036 0.705253 154.587 0.456871 151.676C0.0664813 147.102 0.133576 143.155 0.0115078 138.566C-0.016998 137.494 0.0149912 136.574 0.0267111 135.502C0.0472972 133.619 0.00567524 132.002 0.10381 130.122C0.308812 126.193 0.59291 122.831 0.892521 118.909C0.96584 117.949 1.08268 117.131 1.16925 116.172C1.30362 114.683 1.38281 113.404 1.52376 111.917C1.65614 110.519 1.72646 109.315 1.95015 107.929C2.42813 104.968 2.7778 102.41 3.52718 99.5057C4.65985 95.116 5.65985 91.3393 7.31935 87.1205C10.3902 79.3137 13.258 72.7007 17.0206 65.2026C20.9539 57.3642 24.836 50.9099 29.2831 43.351C30.1508 41.8761 31.0564 40.7017 32.1896 39.4195C36.1948 34.8876 39.4407 30.7895 43.9485 26.7572C49.7353 21.5808 55.269 17.8228 61.5046 13.1968C66.0755 9.80589 70.1878 7.16967 74.8161 3.85764C75.6055 3.29278 76.219 2.72555 76.9798 2.12283C77.4688 1.73544 77.9021 1.42125 78.3871 1.02882C78.7849 0.706918 79.1129 0.415253 79.5016 0.0823563C79.5228 0.0642042 79.5517 0.0367521 79.5883 9.14017e-15L79.5883 9.14017e-15C79.5883 -2.2741e-07 82.0383 4.24352 86.9383 12.7306Z" sodipodi:nodetypes="ccccccccccccccccccccccccccccccccccccccccccccccccccccccccccccccccccccccccccccccccccccccccccccccccccccccccccccccccccccccccccc"/>
  <path id="shape1" transform="translate(45.4161934596075, 79.3454970262011)" fill="#000000" d="M7.35 119.878C2.45 111.391 3.93886e-07 107.148 -1.06581e-14 107.148C0.00230687 107.131 0.00491153 107.118 0.00781395 107.109C0.0307437 107.04 0.0302281 106.969 0.077843 106.914C0.743848 106.149 1.38183 105.553 2.03681 104.778C2.76678 103.915 3.37887 103.16 4.03198 102.238C7.41113 97.4629 10.2826 93.3519 13.5548 88.5033C16.9629 83.4533 19.8606 79.1071 23.1169 73.9579C25.9215 69.5231 28.0723 65.5654 30.8686 61.1253C32.5744 58.4166 34.1753 56.1849 35.9765 53.5387C36.7684 52.3752 37.4818 51.4019 38.2774 50.241C39.367 48.651 40.352 47.3206 41.3627 45.6794C43.7634 41.781 45.8961 38.4751 48.0205 34.4195C50.5909 29.512 52.4939 25.1529 54.7618 20.0985C55.7885 17.8103 56.4957 15.7757 57.4301 13.4483C57.7264 12.7105 57.9775 12.077 58.2781 11.341C58.5345 10.7131 58.742 10.1694 59.0216 9.55153C59.4605 8.58161 59.8413 7.75135 60.3304 6.80574C60.6687 6.15164 60.9536 5.5821 61.3838 4.98443C61.6167 4.66084 61.9458 4.4984 62.2077 4.19774C62.4302 3.94224 62.5975 3.70016 62.7608 3.4033C62.8772 3.19166 62.9428 2.99071 63.0006 2.75617C63.1486 2.15536 63.2429 1.63247 63.3473 1.02256C63.3897 0.774773 63.3964 0.558271 63.4195 0.307946C63.4262 0.236211 63.4335 0.133563 63.4417 0L78.0523 25.3063C78.0363 25.4298 78.0245 25.5249 78.017 25.5916C77.9892 25.8392 77.9824 26.0537 77.9408 26.2993C77.8369 26.9134 77.749 27.4409 77.6017 28.046C77.5449 28.2795 77.4748 28.4778 77.3592 28.6884C77.1956 28.9863 77.04 29.2391 76.8095 29.4889C76.5425 29.7781 76.1976 29.9083 75.9504 30.2146C75.5004 30.7721 75.196 31.3123 74.8373 31.9324C74.3195 32.8273 73.9174 33.6181 73.4484 34.5395C73.1512 35.1233 72.92 35.6355 72.6488 36.2318C72.3275 36.9381 72.0643 37.549 71.7558 38.261C70.7779 40.5177 69.999 42.4783 68.9734 44.7137C66.6639 49.7475 64.8176 54.1321 62.228 59.0277C60.0977 63.0552 57.9271 66.3159 55.5054 70.1752C54.4847 71.8017 53.494 73.1201 52.3963 74.6956C51.5945 75.8462 50.8661 76.8037 50.0784 77.964C48.276 80.6191 46.7489 82.9074 44.9967 85.5959C42.1741 89.9265 39.8354 93.6906 37.008 98.018C33.6811 103.11 30.7373 107.414 27.4135 112.507C24.1612 117.491 21.4507 121.813 18.2194 126.811C17.5837 127.794 16.9948 128.608 16.3651 129.595C15.772 130.525 15.2706 131.327 14.7263 132.286C14.6815 132.365 14.6996 132.453 14.6922 132.543C14.6909 132.558 14.6935 132.58 14.7 132.609L14.7 132.609C14.7 132.609 12.25 128.365 7.35 119.878Z" sodipodi:nodetypes="ccccccccccccccccccccccccccccccccccccccccccccccccccc"/>
 </g>
</svg>
