<?xml version="1.0" standalone="no"?>
<!DOCTYPE svg PUBLIC "-//W3C//DTD SVG 20010904//EN" "http://www.w3.org/TR/2001/REC-SVG-20010904/DTD/svg10.dtd">
<!-- Created using Krita: https://krita.org -->
<svg xmlns="http://www.w3.org/2000/svg" 
    xmlns:xlink="http://www.w3.org/1999/xlink"
    xmlns:krita="http://krita.org/namespaces/svg/krita"
    xmlns:sodipodi="http://sodipodi.sourceforge.net/DTD/sodipodi-0.dtd"
    width="336pt"
    height="336pt"
    viewBox="0 0 336 336">
<defs/>
<path id="shape0" transform="translate(142.530472651365, 8.10663472964441)" fill="#000000" d="M72.6137 12.7306C77.5137 21.2176 79.9637 25.4611 79.9637 25.4611C79.9381 25.4522 79.9181 25.4477 79.9038 25.4476C79.1068 25.443 78.405 25.2762 77.6266 25.4476C75.8547 25.8376 74.38 26.3699 72.6921 27.0352C71.4943 27.5073 70.5426 28.0835 69.4058 28.6878C68.6081 29.1119 67.9144 29.4649 67.1669 29.9723C63.8326 32.2355 60.9918 34.2037 57.7508 36.5988C56.4991 37.5239 55.4658 38.3777 54.3396 39.4521C52.3297 41.3697 50.7033 43.1127 48.8011 45.1372C48.2512 45.7224 47.9137 46.3446 47.3377 46.9041C46.1525 48.0553 45.0126 48.907 43.7834 50.0111C42.5862 51.0863 41.5733 52.023 40.4056 53.1302C40.0634 53.4548 39.7784 53.7433 39.4706 54.1007C39.1524 54.4703 38.8974 54.8032 38.6197 55.204C37.7188 56.5043 36.9444 57.6187 36.1045 58.9592C35.859 59.3511 35.7098 59.7227 35.5237 60.146C35.1172 61.0702 34.7767 61.8665 34.4121 62.8079C34.2026 63.3487 34.0479 63.8222 33.8842 64.3785C33.7699 64.7667 33.679 65.1037 33.6186 65.5039C33.4718 66.4758 33.4159 67.3182 33.293 68.2934C33.229 68.8003 33.1716 69.2348 33.0847 69.7382C32.9979 70.241 32.8671 70.662 32.7967 71.1674C32.5443 72.9799 32.3508 74.5371 32.1629 76.3575C32.0917 77.0472 32.1743 77.6524 32.0567 78.3358C31.886 79.3272 31.5744 80.1411 31.3429 81.1201C31.1462 81.9519 30.9985 82.6699 30.8334 83.5086C30.7221 84.0745 30.6269 84.5605 30.5533 85.1327C30.4066 86.2724 30.2689 87.25 30.2043 88.3973C30.0585 90.9821 29.9999 93.2014 29.9526 95.7898C29.941 96.4227 29.9893 96.9651 30.0359 97.5963C30.0858 98.2727 30.1233 98.8545 30.2282 99.5246C30.6363 102.133 30.828 104.406 31.5012 106.959C32.1586 109.452 32.9539 111.533 34.0146 113.883C35.0612 116.202 36.3726 117.981 37.5046 120.259C37.9785 121.213 38.3971 122.054 38.5943 123.101C38.9435 124.955 38.9885 126.586 39.0516 128.471C39.1661 131.889 39.0023 134.824 39.1014 138.242C39.1422 139.649 39.281 140.852 39.451 142.249C39.6169 143.612 39.7924 144.778 40.0604 146.125C40.6405 149.041 41.1872 151.53 41.8732 154.422C42.014 155.016 42.2348 155.496 42.4209 156.077C42.9132 157.613 43.5674 158.877 43.8116 160.471C44.1872 162.924 43.8754 165.088 44.1781 167.55C44.627 171.201 45.2951 174.289 45.9556 177.908C46.1312 178.87 46.3335 179.685 46.5664 180.635C46.7964 181.573 46.9918 182.379 47.2777 183.302C48.605 187.584 49.8391 191.225 51.1748 195.505C51.4754 196.468 51.7275 197.297 51.9525 198.281C52.0894 198.879 52.1229 199.407 52.2066 200.015C52.3063 200.739 52.3392 201.367 52.4763 202.084C53.3644 206.728 54.1496 210.704 55.135 215.329C55.3033 216.119 55.559 216.768 55.7711 217.547C56.0193 218.459 56.2316 219.241 56.45 220.161C56.8696 221.927 57.224 223.443 57.5937 225.22C57.6687 225.581 57.6625 225.901 57.7198 226.265C57.7757 226.62 57.8536 226.919 57.9169 227.273C58.0068 227.776 58.0622 228.21 58.1577 228.712C58.2232 229.056 58.3032 229.346 58.3766 229.688C58.4484 230.023 58.4916 230.314 58.5723 230.646C58.6484 230.96 58.7263 231.226 58.8242 231.533C58.9271 231.856 59.0287 232.129 59.1458 232.448C59.3312 232.952 59.4936 233.383 59.6883 233.884C59.9255 234.494 60.1364 235.015 60.38 235.622C60.5469 236.039 60.6778 236.401 60.861 236.811C61.0946 237.333 61.3587 237.752 61.5701 238.283C61.6909 238.587 61.7288 238.869 61.8061 239.187C62.4806 241.957 63.0236 244.339 63.7183 247.104C63.9431 247.999 64.1746 248.755 64.433 249.641C64.6917 250.528 64.9109 251.289 65.1958 252.167C65.7004 253.723 66.1639 255.047 66.6887 256.596C66.9209 257.282 67.1329 257.865 67.3585 258.553C67.5697 259.197 67.7476 259.75 67.9364 260.401C68.4529 262.182 68.8682 263.716 69.3735 265.5C69.5886 266.26 69.7623 266.914 69.9946 267.668C70.1892 268.3 70.4072 268.826 70.5928 269.46C70.8359 270.291 71.0628 271.002 71.2189 271.853C71.3199 272.405 71.2725 272.894 71.3242 273.452C71.3911 274.175 71.4842 274.79 71.5578 275.512C71.8334 278.218 72.1504 280.531 72.3217 283.245C72.488 285.88 72.5887 288.145 72.522 290.784C72.5044 291.476 72.3121 292.06 72.0821 292.713C71.7024 293.792 71.2503 294.667 70.7867 295.713C70.6731 295.969 70.5652 296.183 70.4332 296.431C70.3079 296.665 70.1884 296.859 70.052 297.087C69.7898 297.526 69.5887 297.917 69.2942 298.335C68.7516 299.103 68.261 299.745 67.6632 300.472C67.2863 300.93 66.9365 301.302 66.5125 301.717C66.1807 302.042 65.8674 302.289 65.5073 302.582C65.3546 302.706 65.2095 302.794 65.0485 302.908C64.7701 303.104 64.5361 303.279 64.2519 303.466C64.0675 303.588 63.9019 303.681 63.7103 303.791C63.5024 303.911 63.3221 304.01 63.1107 304.123C62.7443 304.32 62.4281 304.485 62.0596 304.677C61.8073 304.81 61.5849 304.911 61.3371 305.052C61.0926 305.191 60.8885 305.32 60.654 305.475C60.3017 305.708 60.0184 305.935 59.6609 306.16C58.4555 306.918 57.4094 307.547 56.1896 308.282C55.8975 308.458 55.6437 308.603 55.3416 308.761C55.0393 308.92 54.7797 309.057 54.4635 309.185C53.6429 309.517 52.9538 309.856 52.0963 310.076C51.0832 310.336 50.1823 310.41 49.1457 310.548C48.6716 310.611 48.2614 310.651 47.7832 310.652C46.3772 310.654 45.1723 310.606 43.7673 310.555C43.1714 310.534 42.6606 310.503 42.0671 310.445C41.7222 310.412 41.4326 310.335 41.0883 310.296C39.7658 310.147 38.631 310.029 37.3057 309.908C37.0505 309.885 36.83 309.891 36.5738 309.883C36.3384 309.876 36.1366 309.868 35.9012 309.866C32.5319 309.84 29.6439 309.798 26.2746 309.802C25.3381 309.802 24.5348 309.819 23.6002 309.878C23.4312 309.888 23.2966 309.96 23.1316 309.997C22.9637 310.036 22.819 310.065 22.6493 310.094C22.4775 310.123 22.3292 310.143 22.1561 310.164C21.9811 310.186 21.8306 310.2 21.6549 310.215C21.4777 310.23 21.3256 310.24 21.148 310.25C20.9693 310.261 20.816 310.268 20.6371 310.276C20.4573 310.284 20.3033 310.296 20.1233 310.294C19.7209 310.291 19.3744 310.303 18.974 310.262C18.5637 310.22 18.2239 310.099 17.8135 310.058C16.8482 309.963 16.0165 309.933 15.0484 309.873C14.9519 309.868 14.8138 309.864 14.6342 309.864L0 284.516C0.180972 284.52 0.320059 284.525 0.417262 284.532C1.38879 284.598 2.22369 284.632 3.19214 284.733C3.6043 284.777 3.94487 284.902 4.35709 284.945C4.75637 284.986 5.10223 284.97 5.50363 284.972C5.68345 284.973 5.83741 284.961 6.01705 284.953C6.19577 284.945 6.34894 284.938 6.52748 284.927C6.70479 284.916 6.85675 284.905 7.03372 284.89C7.20911 284.874 7.3594 284.86 7.53412 284.838C7.70692 284.817 7.85489 284.796 8.02641 284.766C8.19571 284.737 8.34017 284.707 8.50749 284.668C8.6718 284.629 8.80492 284.552 8.97353 284.544C9.91828 284.498 10.73 284.514 11.6758 284.516C15.0435 284.524 17.9301 284.543 21.2977 284.572C21.5363 284.574 21.7405 284.591 21.9788 284.604C22.2388 284.618 22.4626 284.62 22.7216 284.647C24.0582 284.791 25.2036 284.918 26.5366 285.092C26.8891 285.138 27.1823 285.236 27.5355 285.276C28.1311 285.344 28.6445 285.383 29.2436 285.4C30.6355 285.438 31.8295 285.45 33.2218 285.431C33.6997 285.424 34.1093 285.386 34.5834 285.326C35.6243 285.192 36.5306 285.135 37.5478 284.877C38.4054 284.66 39.0904 284.311 39.9095 283.976C40.2254 283.848 40.4838 283.708 40.7887 283.555C41.0935 283.402 41.3604 283.279 41.6513 283.101C42.8661 282.356 43.8942 281.697 45.0884 280.92C45.4427 280.689 45.7228 280.457 46.0746 280.223C46.3086 280.067 46.5177 279.946 46.7611 279.805C47.0074 279.663 47.2235 279.55 47.4732 279.413C47.838 279.214 48.1555 279.051 48.5168 278.846C48.7253 278.727 48.8939 278.608 49.1004 278.486C49.2906 278.373 49.4662 278.298 49.65 278.175C49.9338 277.985 50.1594 277.797 50.434 277.594C50.5926 277.477 50.7346 277.385 50.8878 277.26C51.2478 276.969 51.5653 276.728 51.8995 276.407C52.3262 275.997 52.6761 275.627 53.0582 275.175C53.6617 274.462 54.1692 273.839 54.7128 273.079C55.0118 272.661 55.1988 272.257 55.4606 271.814C55.5953 271.587 55.7165 271.395 55.8457 271.164C55.9799 270.924 56.0972 270.719 56.213 270.47C56.6895 269.444 57.1568 268.586 57.5373 267.521C57.7725 266.862 57.9395 266.267 57.9634 265.568C58.0515 262.987 58.0044 260.768 57.856 258.19C57.6998 255.476 57.3797 253.164 57.0939 250.46C57.0144 249.708 56.9007 249.068 56.8125 248.317C56.7422 247.718 56.7523 247.196 56.6409 246.604C56.4856 245.778 56.2803 245.085 56.0525 244.276C55.8831 243.674 55.685 243.174 55.5065 242.574C55.2872 241.838 55.1218 241.2 54.916 240.459C54.4272 238.701 54.0228 237.19 53.522 235.435C53.3398 234.796 53.1685 234.254 52.9645 233.622C52.7466 232.947 52.5406 232.375 52.3165 231.703C51.8125 230.19 51.3695 228.897 50.8842 227.379C50.6059 226.508 50.3908 225.754 50.135 224.876C49.8749 223.984 49.6493 223.22 49.4103 222.322C48.6289 219.386 47.9925 216.86 47.2195 213.922C47.1297 213.581 47.0753 213.28 46.9452 212.952C46.7458 212.45 46.5 212.052 46.2811 211.558C46.1013 211.152 45.9707 210.794 45.8068 210.381C45.5722 209.79 45.3718 209.283 45.1425 208.69C44.9471 208.185 44.7815 207.751 44.5935 207.242C44.4738 206.919 44.369 206.642 44.2636 206.313C44.1645 206.005 44.0847 205.738 44.0095 205.423C43.9322 205.099 43.897 204.815 43.8282 204.49C43.7551 204.143 43.6704 203.851 43.6039 203.504C43.5083 203.004 43.455 202.57 43.3654 202.069C43.3019 201.714 43.2206 201.415 43.1666 201.058C43.1133 200.706 43.1282 200.395 43.0591 200.045C42.7175 198.316 42.3826 196.842 41.9943 195.123C41.7965 194.246 41.6074 193.499 41.3847 192.629C41.1967 191.894 40.9788 191.278 40.8209 190.536C39.8282 185.87 39.0133 181.862 38.0979 177.18C37.9535 176.441 37.9092 175.795 37.7935 175.051C37.6933 174.407 37.6298 173.85 37.481 173.215C37.2529 172.243 37.0107 171.42 36.7182 170.465C35.4391 166.289 34.2613 162.735 32.991 158.557C32.713 157.642 32.5215 156.845 32.2952 155.917C32.0633 154.965 31.8575 154.149 31.682 153.185C31.0249 149.574 30.4023 146.487 29.9171 142.849C29.5683 140.235 29.7306 137.941 29.3014 135.339C29.0455 133.787 28.4414 132.548 27.9705 131.048C27.7936 130.484 27.583 130.018 27.4506 129.442C26.7985 126.605 26.2782 124.164 25.7308 121.306C25.4777 119.984 25.3212 118.84 25.1644 117.504C25.0002 116.105 24.8569 114.903 24.814 113.496C24.7094 110.065 24.8943 107.118 24.7434 103.689C24.6562 101.708 24.5245 100 24.1347 98.0562C23.9251 97.011 23.5165 96.1679 23.0437 95.2124C21.9547 93.0119 20.6875 91.2954 19.6806 89.0561C18.6173 86.6912 17.8133 84.6003 17.1458 82.0947C16.4578 79.512 16.2484 77.2124 15.8228 74.5738C15.7135 73.8964 15.6766 73.3078 15.6183 72.6243C15.5625 71.9698 15.4882 71.4084 15.4968 70.7517C15.5307 68.1578 15.5942 65.934 15.7397 63.344C15.804 62.2007 15.9466 61.227 16.0959 60.0916C16.1708 59.5219 16.2723 59.0391 16.3801 58.4746C16.5426 57.6239 16.6989 56.8981 16.8679 56.0487C17.0766 55.0003 17.3025 54.1097 17.4592 53.0523C17.5582 52.3846 17.5153 51.7988 17.5971 51.1288C17.8135 49.3562 18.0349 47.8412 18.3107 46.0769C18.3888 45.5775 18.5204 45.1615 18.6079 44.6636C18.6966 44.1592 18.7543 43.7235 18.8139 43.2148C18.93 42.2219 18.9779 41.3648 19.1098 40.3738C19.165 39.9587 19.2352 39.6045 19.3481 39.2012C19.5042 38.6431 19.6633 38.1709 19.8768 37.6321C20.2454 36.7018 20.5917 35.9163 21.0097 35.0072C21.1995 34.5945 21.3683 34.2409 21.6123 33.8579C22.4616 32.5245 23.2316 31.4085 24.1305 30.1079C24.4088 29.7052 24.6584 29.3665 24.9745 28.9927C25.2799 28.6317 25.5622 28.339 25.9035 28.0117C27.0662 26.8968 28.071 25.9491 29.2702 24.8734C30.4987 23.7713 31.6268 22.9113 32.8384 21.7906C33.4158 21.2566 33.8126 20.7007 34.3755 20.1514C36.3442 18.2307 38.0298 16.5806 40.0695 14.7355C41.2227 13.6923 42.2452 12.8315 43.493 11.9035C46.7287 9.49739 49.5569 7.50853 52.8729 5.21441C53.616 4.70034 54.2921 4.31675 55.0852 3.88378C56.2149 3.267 57.1849 2.73471 58.3633 2.21694C60.0054 1.49541 61.4271 0.895773 63.1347 0.346971C63.8382 0.120887 64.4901 0.132391 65.2194 0.0135342C65.2301 0.0117964 65.2449 0.00728498 65.2637 0L65.2637 0C65.2637 -2.2741e-07 67.7137 4.24352 72.6137 12.7306Z" sodipodi:nodetypes="ccccccccccccccccccccccccccccccccccccccccccccccccccccccccccccccccccccccccccccccccccccccccccccccccccccccccccccccccccccccccccccccccccccccccccccccccccccccccccccccccccccccccccccccccccccccccccccccccccccccccccccccccccccccccccccccccccccccccccccccccccccc"/><path id="shape1" transform="translate(121.715686845159, 94.8820458799361)" fill="#000000" d="M15.8591 100.213C15.8683 100.226 15.8704 100.233 15.8653 100.234C15.8445 100.237 15.8232 100.233 15.8069 100.22C15.7729 100.192 15.7303 100.146 15.6791 100.081L1.00663 74.6674C0.949067 74.511 0.90729 74.3898 0.881302 74.304C0.81566 74.0871 0.749487 73.9031 0.707835 73.6804C0.54339 72.8012 0.397385 72.0471 0.29301 71.1587C0.154747 69.982 0.0348507 68.9696 0.0151399 67.7849C-0.00606202 66.5107 -0.0374474 65.4036 0.17635 64.1472C0.352453 63.1123 0.707676 62.2657 1.1187 61.2998C1.43091 60.5661 1.73111 59.9322 2.23342 59.3129C4.02469 57.1045 5.53591 55.1604 7.64525 53.2535C10.5983 50.5839 13.2933 48.4481 16.6387 46.2904C19.4517 44.4761 22.0743 43.2444 25.1632 41.9547C27.7721 40.8654 30.1024 40.1215 32.8641 39.5161C35.8361 38.8646 38.4609 38.7359 41.4823 38.3775C42.1823 38.2944 42.7882 38.2807 43.4926 38.2551C45.652 38.1765 47.5038 38.137 49.6638 38.0797C50.3316 38.0619 50.9041 38.0489 51.5721 38.0406C54.0465 38.0097 56.168 38.0223 58.6421 37.9677C59.2471 37.9544 59.7676 37.9302 60.367 37.8465C61.5803 37.6771 62.6213 37.5202 63.8152 37.2454C64.3714 37.1175 64.827 36.9241 65.3516 36.6995C66.1471 36.3588 66.8514 36.0961 67.5821 35.6325C68.9621 34.7569 70.0838 33.9088 71.3597 32.8873C71.9261 32.4339 72.3253 31.9473 72.8328 31.4287C73.3425 30.9079 73.7734 30.4555 74.2655 29.9181C75.2585 28.8339 76.149 27.9373 77.0756 26.7959C78.8299 24.6348 80.2467 22.7132 81.9201 20.4889C82.2694 20.0246 82.5345 19.6019 82.8532 19.1161C83.1781 18.621 83.4562 18.196 83.7586 17.6869C84.8611 15.8302 85.9174 14.2969 86.8666 12.3574C87.7242 10.605 88.223 8.99705 88.9059 7.1694C89.0976 6.65649 89.2085 6.19855 89.364 5.67354C89.5159 5.16053 89.6558 4.72318 89.7843 4.20378C89.947 3.54577 90.0346 2.96974 90.1953 2.31124C90.3609 1.63293 90.5363 1.06014 90.7165 0.385535C90.7404 0.295963 90.7724 0.167452 90.8126 0L105.394 25.2558C105.355 25.4218 105.322 25.5486 105.295 25.6363C105.097 26.2757 104.897 26.8143 104.714 27.458C104.534 28.0882 104.428 28.641 104.259 29.2741C104.121 29.7898 103.994 30.2297 103.836 30.7397C103.677 31.2522 103.546 31.694 103.354 32.195C102.659 34.0108 102.154 35.6101 101.3 37.357C100.349 39.3023 99.3081 40.8507 98.2096 42.7169C97.9093 43.2271 97.6268 43.6493 97.3041 44.1457C96.986 44.6348 96.7344 45.0697 96.3789 45.5323C94.6925 47.7264 93.2389 49.6021 91.4728 51.7326C90.5352 52.8636 89.6534 53.7659 88.6578 54.8462C88.1647 55.3812 87.7275 55.8263 87.2195 56.3472C86.7117 56.8679 86.3152 57.3573 85.7557 57.8219C84.4951 58.8688 83.3997 59.7576 82.0299 60.6568C81.3066 61.1316 80.5975 61.3876 79.8028 61.7295C79.2786 61.9551 78.8231 62.1495 78.2667 62.2762C77.0706 62.5484 76.0272 62.6995 74.8118 62.8655C74.2116 62.9475 73.6908 62.9737 73.0852 62.984C70.6028 63.0263 68.4743 63.0023 65.9916 63.0159C65.3193 63.0196 64.743 63.0178 64.0709 63.0335C61.9098 63.0839 60.0577 63.1342 57.8972 63.2045C57.1878 63.2276 56.5774 63.2258 55.8716 63.3003C52.8294 63.6214 50.1904 63.7239 47.1929 64.3343C44.4116 64.9006 42.0615 65.6089 39.4211 66.6502C36.3028 67.8799 33.6266 69.0152 30.7909 70.8027C27.4235 72.9255 24.7001 75.0401 21.7949 77.7614C19.6892 79.7338 18.289 81.8196 16.5621 84.1309C16.0749 84.7831 15.7898 85.4386 15.4929 86.1966C15.101 87.1967 14.7665 88.072 14.6022 89.1336C14.4049 90.409 14.4427 91.5282 14.4683 92.8185C14.4917 94.0004 14.5842 95.0134 14.7419 96.185C14.8731 97.16 15.0798 97.9809 15.2923 98.9415C15.347 99.1886 15.4235 99.393 15.5049 99.6327C15.5409 99.739 15.599 99.8884 15.6791 100.081L1.00663 74.6674C1.05202 74.7245 1.09068 74.764 1.12261 74.7859C1.13603 74.7951 1.15233 74.7804 1.16844 74.7782C1.16988 74.778 1.17197 74.7781 1.17469 74.7786L1.17469 74.7786Z" sodipodi:nodetypes="cccccccccccccccccccccccccccccccccccccccccccccccccccccccccccccccccccccccccccccccc"/><path id="shape0" transform="matrix(0.999999977832492 0 0 0.999999977832492 143.194624895157 155.435770589134)" fill="#000000" stroke-opacity="0" stroke="#000000" stroke-width="0" stroke-linecap="square" stroke-linejoin="bevel" d="M15.8591 100.213C15.8683 100.226 15.8704 100.233 15.8653 100.234C15.8445 100.237 15.8232 100.233 15.8069 100.22C15.7729 100.192 15.7303 100.146 15.6791 100.081L1.00663 74.6674C0.949067 74.511 0.90729 74.3898 0.881302 74.304C0.81566 74.0871 0.749487 73.9031 0.707835 73.6804C0.54339 72.8012 0.397385 72.0471 0.29301 71.1587C0.154747 69.982 0.0348507 68.9696 0.0151399 67.7849C-0.00606205 66.5107 -0.0374474 65.4036 0.17635 64.1472C0.352453 63.1123 0.707676 62.2657 1.1187 61.2998C1.43091 60.5661 1.73111 59.9322 2.23342 59.3129C4.02469 57.1045 5.53591 55.1604 7.64525 53.2535C10.5983 50.5839 13.2933 48.4481 16.6387 46.2904C19.4517 44.4761 22.0743 43.2444 25.1632 41.9547C27.7721 40.8654 30.1024 40.1215 32.8641 39.5161C35.8361 38.8646 38.4609 38.7359 41.4823 38.3775C42.1823 38.2944 42.7882 38.2807 43.4926 38.2551C45.652 38.1765 47.5038 38.137 49.6638 38.0797C50.3316 38.0619 50.9041 38.0489 51.5721 38.0406C54.0465 38.0097 56.168 38.0223 58.6421 37.9677C59.2471 37.9544 59.7676 37.9302 60.367 37.8465C61.5803 37.6771 62.6213 37.5202 63.8152 37.2454C64.3714 37.1175 64.827 36.9241 65.3516 36.6995C66.1471 36.3588 66.8514 36.0961 67.5821 35.6325C68.9621 34.7569 70.0838 33.9088 71.3597 32.8873C71.9261 32.4339 72.3253 31.9473 72.8328 31.4287C73.3425 30.9079 73.7734 30.4555 74.2655 29.9181C75.2585 28.8339 76.149 27.9373 77.0756 26.7959C78.8299 24.6348 80.2467 22.7132 81.9201 20.4889C82.2694 20.0246 82.5345 19.6019 82.8532 19.1161C83.1781 18.621 83.4562 18.196 83.7586 17.6869C84.8611 15.8302 85.9174 14.2969 86.8666 12.3574C87.7242 10.605 88.223 8.99705 88.9059 7.1694C89.0976 6.65649 89.2085 6.19855 89.364 5.67354C89.5159 5.16053 89.6558 4.72318 89.7843 4.20378C89.947 3.54577 90.0346 2.96974 90.1953 2.31124C90.3609 1.63293 90.5363 1.06014 90.7165 0.385535C90.7404 0.295963 90.7724 0.167452 90.8126 0L105.394 25.2558C105.355 25.4218 105.322 25.5486 105.295 25.6363C105.097 26.2757 104.897 26.8143 104.714 27.458C104.534 28.0882 104.428 28.641 104.259 29.2741C104.121 29.7898 103.994 30.2297 103.836 30.7397C103.677 31.2522 103.546 31.694 103.354 32.195C102.659 34.0108 102.154 35.6101 101.3 37.357C100.349 39.3023 99.3081 40.8507 98.2096 42.7169C97.9093 43.2271 97.6268 43.6493 97.3041 44.1457C96.986 44.6348 96.7344 45.0697 96.3789 45.5323C94.6925 47.7264 93.2389 49.6021 91.4728 51.7326C90.5352 52.8636 89.6534 53.7659 88.6578 54.8462C88.1647 55.3812 87.7275 55.8263 87.2195 56.3472C86.7117 56.8679 86.3152 57.3573 85.7557 57.8219C84.4951 58.8688 83.3997 59.7576 82.0299 60.6568C81.3066 61.1316 80.5975 61.3876 79.8028 61.7295C79.2786 61.9551 78.8231 62.1495 78.2667 62.2762C77.0706 62.5484 76.0272 62.6995 74.8118 62.8655C74.2116 62.9475 73.6908 62.9737 73.0852 62.984C70.6028 63.0263 68.4743 63.0023 65.9916 63.0159C65.3193 63.0196 64.743 63.0178 64.0709 63.0335C61.9098 63.0839 60.0577 63.1342 57.8972 63.2045C57.1878 63.2276 56.5774 63.2258 55.8716 63.3003C52.8294 63.6214 50.1904 63.7239 47.1929 64.3343C44.4116 64.9006 42.0615 65.6089 39.4211 66.6502C36.3028 67.8799 33.6266 69.0152 30.7909 70.8027C27.4235 72.9255 24.7001 75.0401 21.7949 77.7614C19.6892 79.7338 18.289 81.8196 16.5621 84.1309C16.0749 84.7831 15.7898 85.4386 15.4929 86.1966C15.101 87.1967 14.7665 88.072 14.6022 89.1336C14.4049 90.409 14.4427 91.5282 14.4683 92.8185C14.4917 94.0004 14.5842 95.0134 14.7419 96.185C14.8731 97.16 15.0798 97.9809 15.2923 98.9415C15.347 99.1886 15.4235 99.393 15.5049 99.6327C15.5409 99.739 15.599 99.8884 15.6791 100.081L1.00663 74.6674C1.05202 74.7245 1.09068 74.764 1.12261 74.7859C1.13603 74.7951 1.15233 74.7804 1.16844 74.7782C1.16988 74.778 1.17197 74.7781 1.17469 74.7786L1.17469 74.7786Z" sodipodi:nodetypes="cccccccccccccccccccccccccccccccccccccccccccccccccccccccccccccccccccccccccccccccc"/>
</svg>
