<?xml version="1.0" standalone="no"?>
<!DOCTYPE svg PUBLIC "-//W3C//DTD SVG 20010904//EN" "http://www.w3.org/TR/2001/REC-SVG-20010904/DTD/svg10.dtd">
<!-- Created using Krita: https://krita.org -->
<svg xmlns="http://www.w3.org/2000/svg" 
    xmlns:xlink="http://www.w3.org/1999/xlink"
    xmlns:krita="http://krita.org/namespaces/svg/krita"
    xmlns:sodipodi="http://sodipodi.sourceforge.net/DTD/sodipodi-0.dtd"
    width="336pt"
    height="336pt"
    viewBox="0 0 336 336">
<defs/>
<g id="group0" transform="translate(102.923892999764, 16.7825256847151)" fill="none">
  <path id="shape0" fill="#000000" d="M54.918 288.201C59.8128 296.679 62.2602 300.918 62.2602 300.918C62.273 300.957 62.2725 300.977 62.2586 300.978C62.1539 300.987 62.0475 301.004 61.9601 300.945C60.9204 300.252 60.11 299.541 59.0689 298.849C56.4087 297.082 54.1885 295.458 51.3884 293.922C47.6014 291.844 44.1452 290.473 40.2815 288.542C38.3809 287.592 36.749 286.775 34.9213 285.691C34.1242 285.219 33.5154 284.696 32.8008 284.106C32.0814 283.512 31.4261 283.029 30.8287 282.313C29.4637 280.676 28.3151 279.237 27.2171 277.41C25.8732 275.174 24.1185 271.886 21.953 267.546L7.65095 242.774C7.15366 241.772 6.79984 240.989 6.5895 240.425C5.22513 236.77 3.92308 233.674 2.85379 229.922C1.7988 226.22 1.05058 222.985 0.532765 219.171C0.0489582 215.607 0.0479894 212.505 0.00124883 208.908C-0.0162549 207.561 0.152767 206.408 0.349579 205.076C0.744694 202.401 1.02863 200.089 1.69115 197.467C2.8158 193.017 3.78808 189.181 5.44776 184.902C8.2194 177.755 11.1637 171.863 14.3282 164.881C14.7403 163.972 15.1711 163.229 15.6641 162.36C16.246 161.336 16.7913 160.484 17.3979 159.474C18.0669 158.36 18.6419 157.406 19.309 156.291C19.9577 155.207 20.5194 154.281 21.1574 153.19C22.0723 151.626 22.8421 150.277 23.7458 148.707C24.2694 147.797 24.7089 147.011 25.2355 146.103C25.7068 145.29 26.1216 144.6 26.5968 143.789C27.6506 141.991 28.5534 140.45 29.6041 138.651C29.9582 138.044 30.2695 137.529 30.6104 136.915C30.9113 136.373 31.1472 135.897 31.4374 135.349C31.9547 134.373 32.4519 133.563 32.9177 132.562C33.094 132.182 33.1433 131.818 33.2653 131.418C33.3928 131 33.4921 130.639 33.6305 130.224C33.8906 129.446 34.139 128.787 34.4037 128.009C34.6045 127.419 34.7719 126.912 34.9603 126.319C35.1654 125.672 35.3729 125.126 35.528 124.466C36.4141 120.695 37.1375 117.453 37.9342 113.662C38.1449 112.659 38.2376 111.783 38.4057 110.772C38.5851 109.693 38.745 108.769 38.9269 107.69C39.1193 106.548 39.2708 105.567 39.4751 104.428C39.7777 102.74 40.0202 101.289 40.3751 99.611C41.2912 95.2802 42.204 91.5956 43.1061 87.2619C43.5481 85.1386 43.8376 83.3011 44.2149 81.1654C44.5935 79.0223 44.9123 77.1842 45.2658 75.0368C45.5037 73.5919 45.669 72.3473 45.9047 70.9021C46.1595 69.3399 46.4022 68.005 46.6674 66.4446C46.9528 64.765 47.1873 63.3236 47.4779 61.6449C47.7861 59.8647 48.0771 58.3435 48.3783 56.5622C48.8057 54.0337 49.1371 51.8606 49.5597 49.3313C49.856 47.5581 50.1495 46.0447 50.4325 44.2693C50.7523 42.263 50.9843 40.5368 51.2818 38.527C52.2204 32.1867 53.0019 26.7487 53.9643 20.4119C54.186 18.9524 54.391 17.7032 54.6647 16.2526C54.7491 15.805 54.8898 15.4367 54.9869 14.9917C55.2216 13.9162 55.4866 13.003 55.6126 11.9094C55.7222 10.959 55.6591 10.1331 55.6571 9.17641C55.6562 8.75727 55.619 8.39892 55.6042 7.98004C55.5752 7.15488 55.5545 6.44744 55.532 5.62207C55.4864 3.94932 55.4488 2.51549 55.4097 0.842574C55.4051 0.646016 55.4021 0.365158 55.4006 0L70.0656 25.4005C70.0623 25.7552 70.0607 26.0281 70.0609 26.2191C70.0624 27.824 70.0545 29.1996 70.071 30.8044C70.0794 31.6231 70.1058 32.3245 70.132 33.1429C70.1454 33.5613 70.1813 33.9192 70.184 34.3378C70.1903 35.3054 70.2688 36.1412 70.1579 37.1025C70.0328 38.1863 69.7728 39.0925 69.5132 40.1521C69.412 40.5651 69.234 40.8925 69.1284 41.3045C68.7868 42.637 68.4952 43.7812 68.2367 45.1324C67.0799 51.1785 66.1152 56.3666 65.0854 62.4356C64.7391 64.4766 64.5865 66.2477 64.3058 68.2987C64.0527 70.1485 63.8594 71.7378 63.5601 73.5808C63.1562 76.0685 62.7244 78.1863 62.297 80.6701C61.9858 82.4788 61.7492 84.0342 61.4497 85.8449C61.1712 87.5292 60.9107 88.9693 60.6457 90.6557C60.3927 92.266 60.2118 93.6517 59.9699 95.2637C59.7524 96.713 59.5701 97.956 59.3332 99.4022C58.981 101.552 58.6602 103.392 58.2871 105.539C57.9136 107.687 57.6222 109.534 57.2001 111.673C56.3304 116.081 55.4861 119.84 54.5968 124.244C54.2579 125.922 54.0001 127.367 53.6911 129.051C53.4841 130.179 53.3021 131.145 53.1225 132.278C52.9452 133.396 52.8419 134.362 52.6715 135.481C52.5176 136.492 52.3932 137.361 52.1961 138.364C51.4351 142.24 50.7681 145.559 49.9344 149.419C49.7882 150.096 49.6006 150.662 49.3974 151.324C49.2156 151.917 49.0214 152.413 48.8347 153.004C48.5777 153.818 48.3729 154.52 48.1296 155.338C48.0032 155.763 47.9009 156.129 47.7782 156.555C47.6608 156.963 47.6311 157.34 47.4436 157.721C46.9669 158.689 46.438 159.455 45.8922 160.386C45.5879 160.905 45.328 161.351 45.0146 161.864C44.6556 162.453 44.3316 162.948 43.9713 163.535C42.893 165.295 41.9848 166.812 40.9044 168.57C40.42 169.359 39.9887 170.024 39.5003 170.81C38.9563 171.686 38.4909 172.437 37.9545 173.317C37.0226 174.846 36.2261 176.158 35.3051 177.694C34.6542 178.78 34.1085 179.718 33.4635 180.807C32.7992 181.929 32.2024 182.874 31.5643 184.011C30.9686 185.073 30.5088 186.01 29.9394 187.086C29.4724 187.968 29.0177 188.698 28.6031 189.606C25.4265 196.564 22.4894 202.44 19.6813 209.555C18.0122 213.784 16.9748 217.56 15.8323 221.96C15.1533 224.576 14.887 226.89 14.4865 229.562C14.2882 230.885 14.0938 232.03 14.1227 233.367C14.2024 237.052 14.2837 240.226 14.796 243.875C15.3299 247.679 16.0465 250.911 17.1036 254.603C18.1907 258.4 19.5231 261.528 20.9089 265.227C21.1171 265.783 21.4651 266.556 21.953 267.546L7.65095 242.774C9.8176 247.118 11.5737 250.408 12.9192 252.645C13.9738 254.399 15.089 255.772 16.4086 257.336C17.0018 258.039 17.6505 258.512 18.3612 259.096C19.0788 259.686 19.6849 260.216 20.4851 260.687C22.302 261.758 23.9391 262.534 25.8185 263.491C29.7466 265.491 33.2146 267.011 37.0772 269.134C39.8033 270.633 41.9911 272.173 44.6239 273.83C45.5738 274.428 46.3433 275.012 47.3133 275.576C47.3936 275.623 47.4897 275.58 47.5773 275.549C47.5917 275.544 47.5912 275.522 47.5758 275.484L47.5758 275.484C47.5758 275.484 50.0232 279.723 54.918 288.201Z" sodipodi:nodetypes="ccccccccccccccccccccccccccccccccccccccccccccccccccccccccccccccccccccccccccccccccccccccccccccccccccccccccccccccccccccccccccc"/>
  <path id="shape0" transform="matrix(-0.99999998988116 0 0 0.99999998988116 139.750132428219 1.44757944646668)" fill="#000000" stroke-opacity="0" stroke="#000000" stroke-width="0" stroke-linecap="square" stroke-linejoin="bevel" d="M54.918 288.201C59.8128 296.679 62.2602 300.918 62.2602 300.918C62.273 300.957 62.2725 300.977 62.2586 300.978C62.1539 300.987 62.0475 301.004 61.9601 300.945C60.9204 300.252 60.11 299.541 59.0689 298.849C56.4087 297.082 54.1885 295.458 51.3884 293.922C47.6014 291.844 44.1452 290.473 40.2815 288.542C38.3809 287.592 36.749 286.775 34.9213 285.691C34.1242 285.219 33.5154 284.696 32.8008 284.106C32.0814 283.512 31.4261 283.029 30.8287 282.313C29.4637 280.676 28.3151 279.237 27.2171 277.41C25.8732 275.174 24.1185 271.886 21.953 267.546L7.65095 242.774C7.15366 241.772 6.79984 240.989 6.5895 240.425C5.22513 236.77 3.92308 233.674 2.85379 229.922C1.7988 226.22 1.05058 222.985 0.532765 219.171C0.0489582 215.607 0.0479894 212.505 0.00124883 208.908C-0.0162549 207.561 0.152767 206.408 0.349579 205.076C0.744694 202.401 1.02863 200.089 1.69115 197.467C2.8158 193.017 3.78808 189.181 5.44776 184.902C8.2194 177.755 11.1637 171.863 14.3282 164.881C14.7403 163.972 15.1711 163.229 15.6641 162.36C16.246 161.336 16.7913 160.484 17.3979 159.474C18.0669 158.36 18.6419 157.406 19.309 156.291C19.9577 155.207 20.5194 154.281 21.1574 153.19C22.0723 151.626 22.8421 150.277 23.7458 148.707C24.2694 147.797 24.7089 147.011 25.2355 146.103C25.7068 145.29 26.1216 144.6 26.5968 143.789C27.6506 141.991 28.5534 140.45 29.6041 138.651C29.9582 138.044 30.2695 137.529 30.6104 136.915C30.9113 136.373 31.1472 135.897 31.4374 135.349C31.9547 134.373 32.4519 133.563 32.9177 132.562C33.094 132.182 33.1433 131.818 33.2653 131.418C33.3928 131 33.4921 130.639 33.6305 130.224C33.8906 129.446 34.139 128.787 34.4037 128.009C34.6045 127.419 34.7719 126.912 34.9603 126.319C35.1654 125.672 35.3729 125.126 35.528 124.466C36.4141 120.695 37.1375 117.453 37.9342 113.662C38.1449 112.659 38.2376 111.783 38.4057 110.772C38.5851 109.693 38.745 108.769 38.9269 107.69C39.1193 106.548 39.2708 105.567 39.4751 104.428C39.7777 102.74 40.0202 101.289 40.3751 99.611C41.2912 95.2802 42.204 91.5956 43.1061 87.2619C43.5481 85.1386 43.8376 83.3011 44.2149 81.1654C44.5935 79.0223 44.9123 77.1842 45.2658 75.0368C45.5037 73.5919 45.669 72.3473 45.9047 70.9021C46.1595 69.3399 46.4022 68.005 46.6674 66.4446C46.9528 64.765 47.1873 63.3236 47.4779 61.6449C47.7861 59.8647 48.0771 58.3435 48.3783 56.5622C48.8057 54.0337 49.1371 51.8606 49.5597 49.3313C49.856 47.5581 50.1495 46.0447 50.4325 44.2693C50.7523 42.263 50.9843 40.5368 51.2818 38.527C52.2204 32.1867 53.0019 26.7487 53.9643 20.4119C54.186 18.9524 54.391 17.7032 54.6647 16.2526C54.7491 15.805 54.8898 15.4367 54.9869 14.9917C55.2216 13.9162 55.4866 13.003 55.6126 11.9094C55.7222 10.959 55.6591 10.1331 55.6571 9.17641C55.6562 8.75727 55.619 8.39892 55.6042 7.98004C55.5752 7.15488 55.5545 6.44744 55.532 5.62207C55.4864 3.94932 55.4488 2.51549 55.4097 0.842574C55.4051 0.646016 55.4021 0.365158 55.4006 0L70.0656 25.4005C70.0623 25.7552 70.0607 26.0281 70.0609 26.2191C70.0624 27.824 70.0545 29.1996 70.071 30.8044C70.0794 31.6231 70.1058 32.3245 70.132 33.1429C70.1454 33.5613 70.1813 33.9192 70.184 34.3378C70.1903 35.3054 70.2688 36.1412 70.1579 37.1025C70.0328 38.1863 69.7728 39.0925 69.5132 40.1521C69.412 40.5651 69.234 40.8925 69.1284 41.3045C68.7868 42.637 68.4952 43.7812 68.2367 45.1324C67.0799 51.1785 66.1152 56.3666 65.0854 62.4356C64.7391 64.4766 64.5865 66.2477 64.3058 68.2987C64.0527 70.1485 63.8594 71.7378 63.5601 73.5808C63.1562 76.0685 62.7244 78.1863 62.297 80.6701C61.9858 82.4788 61.7492 84.0342 61.4497 85.8449C61.1712 87.5292 60.9107 88.9693 60.6457 90.6557C60.3927 92.266 60.2118 93.6517 59.9699 95.2637C59.7524 96.713 59.5701 97.956 59.3332 99.4022C58.981 101.552 58.6602 103.392 58.2871 105.539C57.9136 107.687 57.6222 109.534 57.2001 111.673C56.3304 116.081 55.4861 119.84 54.5968 124.244C54.2579 125.922 54.0001 127.367 53.6911 129.051C53.4841 130.179 53.3021 131.145 53.1225 132.278C52.9452 133.396 52.8419 134.362 52.6715 135.481C52.5176 136.492 52.3932 137.361 52.1961 138.364C51.4351 142.24 50.7681 145.559 49.9344 149.419C49.7882 150.096 49.6006 150.662 49.3974 151.324C49.2156 151.917 49.0214 152.413 48.8347 153.004C48.5777 153.818 48.3729 154.52 48.1296 155.338C48.0032 155.763 47.9009 156.129 47.7782 156.555C47.6608 156.963 47.6311 157.34 47.4436 157.721C46.9669 158.689 46.438 159.455 45.8922 160.386C45.5879 160.905 45.328 161.351 45.0146 161.864C44.6556 162.453 44.3316 162.948 43.9713 163.535C42.893 165.295 41.9848 166.812 40.9044 168.57C40.42 169.359 39.9887 170.024 39.5003 170.81C38.9563 171.686 38.4909 172.437 37.9545 173.317C37.0226 174.846 36.2261 176.158 35.3051 177.694C34.6542 178.78 34.1085 179.718 33.4635 180.807C32.7992 181.929 32.2024 182.874 31.5643 184.011C30.9686 185.073 30.5088 186.01 29.9394 187.086C29.4724 187.968 29.0177 188.698 28.6031 189.606C25.4265 196.564 22.4894 202.44 19.6813 209.555C18.0122 213.784 16.9748 217.56 15.8323 221.96C15.1533 224.576 14.887 226.89 14.4865 229.562C14.2882 230.885 14.0938 232.03 14.1227 233.367C14.2024 237.052 14.2837 240.226 14.796 243.875C15.3299 247.679 16.0465 250.911 17.1036 254.603C18.1907 258.4 19.5231 261.528 20.9089 265.227C21.1171 265.783 21.4651 266.556 21.953 267.546L7.65095 242.774C9.8176 247.118 11.5737 250.408 12.9192 252.645C13.9738 254.399 15.089 255.772 16.4086 257.336C17.0018 258.039 17.6505 258.512 18.3612 259.096C19.0788 259.686 19.6849 260.216 20.4851 260.687C22.302 261.758 23.9391 262.534 25.8185 263.491C29.7466 265.491 33.2146 267.011 37.0772 269.134C39.8033 270.633 41.9911 272.173 44.6239 273.83C45.5738 274.428 46.3433 275.012 47.3133 275.576C47.3936 275.623 47.4897 275.58 47.5773 275.549C47.5917 275.544 47.5912 275.522 47.5758 275.484L47.5758 275.484C47.5758 275.484 50.0232 279.723 54.918 288.201Z" sodipodi:nodetypes="ccccccccccccccccccccccccccccccccccccccccccccccccccccccccccccccccccccccccccccccccccccccccccccccccccccccccccccccccccccccccccc"/>
  <path id="shape1" transform="translate(35.646480470394, 214.675168591582)" fill="#000000" d="M7.34218 13.0459C2.4474 4.56789 3.93467e-07 0.328881 0 0.328881C0.0534976 0.338642 0.0948248 0.344055 0.123981 0.345122C2.36446 0.427112 4.28404 0.534266 6.52577 0.56769C9.43753 0.611104 11.9345 0.621309 14.846 0.564624C18.3746 0.495927 21.3965 0.340347 24.9233 0.20951C25.3712 0.192894 25.7544 0.161718 26.2022 0.143336C26.6751 0.123927 27.0806 0.110569 27.5537 0.101543C28.9998 0.073961 30.2393 0.0550231 31.6855 0.0387448C33.3222 0.020322 34.7252 -0.00851683 36.362 0.00239791C39.5063 0.0233651 42.2023 0.0263044 45.3449 0.129831C45.7672 0.143742 46.1147 0.286172 46.534 0.337492C47.98 0.514443 49.2228 0.637665 50.6724 0.781784C50.9028 0.804687 51.1018 0.804228 51.3331 0.814605C51.5496 0.824323 51.7353 0.83162 51.952 0.839197C52.1587 0.846427 52.3359 0.851501 52.5426 0.85691C52.7423 0.862136 52.9135 0.868786 53.1133 0.869581C54.005 0.873131 55.2789 0.874736 56.9349 0.874397L71.5894 26.2567C69.9175 26.2287 68.6314 26.206 67.7312 26.1886C67.5304 26.1847 67.3584 26.1782 67.1577 26.171C66.9495 26.1634 66.7711 26.1564 66.563 26.1463C66.3443 26.1356 66.1568 26.1259 65.9382 26.1115C65.7033 26.0961 65.501 26.091 65.2675 26.0611C63.7912 25.8724 62.5268 25.7022 61.0541 25.487C60.6339 25.4256 60.2844 25.2877 59.8601 25.2708C56.7053 25.1455 53.9983 25.1198 50.8413 25.0813C49.2018 25.0613 47.7963 25.0812 46.1568 25.1038C44.7178 25.1237 43.4846 25.1609 42.046 25.2028C41.5764 25.2165 41.1742 25.2385 40.705 25.2629C40.2592 25.2861 39.8781 25.3286 39.4318 25.3389C35.8714 25.4212 32.8194 25.4916 29.2582 25.5272C26.345 25.5564 23.8474 25.48 20.9344 25.5242C18.7826 25.5568 16.9401 25.6646 14.7896 25.7467C14.7648 25.7477 14.7297 25.7531 14.6844 25.763L14.6844 25.763C14.6844 25.763 12.237 21.5239 7.34218 13.0459Z" sodipodi:nodetypes="ccccccccccccccccccccccccccccccccccccc"/>
 </g>
</svg>
