<?xml version="1.0" encoding="UTF-8" standalone="no"?>
<!-- Created with Inkscape (http://www.inkscape.org/) -->

<svg
   width="400"
   height="400"
   version="1.1"
   viewBox="0 0 105.83 105.83"
   id="svg10"
   sodipodi:docname="mana.svg"
   inkscape:version="1.2.1 (9c6d41e4, 2022-07-14)"
   xmlns:inkscape="http://www.inkscape.org/namespaces/inkscape"
   xmlns:sodipodi="http://sodipodi.sourceforge.net/DTD/sodipodi-0.dtd"
   xmlns="http://www.w3.org/2000/svg"
   xmlns:svg="http://www.w3.org/2000/svg">
  <defs
     id="defs14" />
  <sodipodi:namedview
     id="namedview12"
     pagecolor="#ffffff"
     bordercolor="#111111"
     borderopacity="1"
     inkscape:showpageshadow="0"
     inkscape:pageopacity="0"
     inkscape:pagecheckerboard="1"
     inkscape:deskcolor="#d1d1d1"
     showgrid="false"
     inkscape:zoom="0.59"
     inkscape:cx="199.15254"
     inkscape:cy="200"
     inkscape:window-width="1463"
     inkscape:window-height="456"
     inkscape:window-x="58"
     inkscape:window-y="248"
     inkscape:window-maximized="0"
     inkscape:current-layer="svg10" />
  <g
     transform="translate(-65.344432,-49.753788)"
     id="g8">
    <g
       transform="matrix(0.35278,0,0,0.35278,72.446,68.342)"
       stroke="#000000"
       stroke-linecap="square"
       stroke-linejoin="bevel"
       stroke-opacity="0"
       stroke-width="0"
       id="g6">
      <path
         d="m 1.3819,31.804 14.7,25.461 C 9.7184,46.228 4.8179,37.741 1.3819,31.804 1.37796,31.7972 1.36695,31.7994 1.34885,31.8106 l 14.692,25.448 c -0.0616,0.002 -0.1044,-0.0065 -0.1283,-0.0255 -0.0461,-0.0366 -0.0977,-0.1031 -0.1548,-0.1994 L 1.09975,31.6457 C 0.91748,31.2244 0.80142,30.8936 0.75159,30.6533 0.49981,29.4393 0.27494,28.3943 0.16927,27.159 0.03034,25.5348 -0.06595,24.1285 0.05445,22.5028 c 0.08578,-1.1582 0.31922,-2.1464 0.69989,-3.2436 0.33458,-0.9644 0.69648,-1.7943 1.3266,-2.5974 0.89822,-1.1449 1.8342,-2.0031 2.9832,-2.8961 1.9491,-1.5149 3.6744,-2.7689 5.837,-3.9592 3.4758,-1.9131 6.5505,-3.399 10.23,-4.8839 3.0762,-1.2415 5.8013,-2.1146 9.0271,-2.888 3.4844,-0.83535 6.5368,-1.2833 10.096,-1.6966 2.4281,-0.28194 4.5375,-0.41995 6.9782,-0.28597 4.4811,0.24598 8.3289,0.59279 12.749,1.3689 3.6348,0.63819 6.6643,1.6126 10.203,2.6609 1.5136,0.4484 2.7471,1.0245 4.2132,1.6098 1.0173,0.40618 1.896,0.7435 2.8811,1.2226 4.149,2.0178 7.7545,3.6608 11.783,5.9092 3.3018,1.8427 5.9999,3.6535 9.1361,5.7657 1.7049,1.1481 3.0703,2.2689 4.6843,3.5419 0.811,0.64 1.467,1.2375 2.242,1.9214 0.798,0.7041 1.494,1.2956 2.25,2.0439 2.65,2.6212 4.879,4.9111 7.48,7.5808 0.867,0.8901 1.579,1.6834 2.429,2.5894 0.869,0.9254 1.626,1.7073 2.483,2.6431 2.014,2.1967 3.634,4.1778 5.719,6.3066 4.056,4.1412 7.753,7.4702 11.819,11.601 3.654,3.7118 6.573,7.099 10.236,10.803 3.183,3.2196 5.984,5.9102 9.319,8.9729 1.184,1.0875 2.261,1.9588 3.582,2.8755 2.365,1.6411 4.428,3.0059 6.933,4.4227 1.588,0.8976 3.019,1.559 4.735,2.1749 3.612,1.2959 6.774,2.2196 10.462,3.2775 1.201,0.3444 2.256,0.5628 3.494,0.7253 4.834,0.6346 8.977,1.2389 13.842,1.5507 3.663,0.2348 6.818,0.0993 10.488,0.0087 1.264,-0.0312 2.346,-0.1612 3.595,-0.3565 1.958,-0.306 3.652,-0.5345 5.559,-1.0744 2.928,-0.8292 5.453,-1.5651 8.222,-2.8281 3.384,-1.5438 6.105,-3.2397 9.29,-5.1607 1.685,-1.016 3.037,-2.0359 4.607,-3.2205 0.812,-0.6124 1.498,-1.164 2.192,-1.9073 1.565,-1.6759 2.975,-3.0804 4.247,-4.9884 1.195,-1.7916 1.985,-3.4907 2.748,-5.5044 0.707,-1.8676 1.109,-3.5526 1.428,-5.524 0.348,-2.1591 0.512,-4.0443 0.471,-6.2309 -0.047,-2.4921 -0.274,-4.6327 -0.722,-7.0847 -0.384,-2.1077 -0.962,-3.8657 -1.646,-5.8961 -0.322,-0.9576 -0.699,-1.7512 -1.222,-2.6156 -0.651,-1.0762 -1.668,-2.5577 -3.051,-4.4446 l 14.381,24.908 c -1.516,-1.7355 -2.752,-2.9939 -3.708,-3.7751 -1.697,-1.3858 -3.286,-2.4152 -5.191,-3.4954 -2.116,-1.1997 -4.003,-2.1153 -6.268,-3.0014 -1.999,-0.7819 -3.781,-1.2912 -5.877,-1.7497 -2.218,-0.4849 -4.154,-0.7627 -6.417,-0.9388 -2.677,-0.2083 -4.988,-0.304 -7.669,-0.1575 -1.916,0.1047 -3.541,0.4512 -5.413,0.8724 -3.487,0.7847 -6.503,1.41 -9.885,2.5695 -2.572,0.8821 -4.719,1.8595 -7.062,3.2415 -4.481,2.6438 -8.265,5.0443 -12.379,8.2291 -2.991,2.3153 -5.16,4.7681 -7.848,7.4294 -0.777,0.7694 -1.339,1.5267 -2.042,2.364 -0.729,0.8674 -1.359,1.6071 -2.048,2.506 -1.088,1.4183 -2.052,2.6153 -3.028,4.1124 -3.722,5.708 -6.832,10.654 -10.39,16.465 -1.135,1.8526 -1.969,3.5217 -3.015,5.4255 -0.549,0.9983 -0.974,1.8793 -1.543,2.8663 -1.932,3.358 -3.624,6.216 -5.601,9.547 -0.599,1.009 -1.148,1.853 -1.761,2.854 -1.564,2.557 -2.787,4.824 -4.459,7.313 -5.193,7.727 -10.093,14.048 -15.149,21.866 -7.288,11.271 -12.793,21.401 -20.106,32.655 -5.401,8.311 -10.33,15.243 -16.206,23.225 -4.1625,5.654 -8.0483,10.259 -12.464,15.717 -0.8315,1.027 -1.5987,1.865 -2.5251,2.808 -4.0703,4.143 -7.5872,7.667 -11.748,11.718 -0.7923,0.772 -1.5087,1.4 -2.3986,2.057 -3.8444,2.835 -7.1459,5.263 -11.12,7.914 -1.5118,1.009 -2.8789,1.781 -4.5348,2.53 -2.97,1.344 -5.5505,2.447 -8.6558,3.439 -1.9845,0.633 -3.7574,1.001 -5.8322,1.188 -1.3796,0.124 -2.5831,-0.059 -3.9453,-0.31 -0.9249,-0.17 -1.6717,-0.517 -2.5373,-0.885 -0.5942,-0.253 -1.0848,-0.521 -1.6202,-0.882 -1.5707,-1.059 -2.9404,-1.947 -4.388,-3.169 -1.0993,-0.927 -1.9694,-1.822 -2.8612,-2.95 -0.5886,-0.745 -1.3162,-1.89 -2.1829,-3.434 l -14.381,-24.909 c -0.41938,-0.822 -0.70298,-1.468 -0.85081,-1.94 -0.72798,-2.322 -1.259,-4.341 -1.8577,-6.7 -0.24945,-0.983 -0.38138,-1.844 -0.56411,-2.842 -0.1922,-1.049 -0.38018,-1.946 -0.507,-3.005 -0.40588,-3.389 -0.79245,-6.293 -1.0144,-9.699 -0.12964,-1.989 -0.05874,-3.702 0.01107,-5.694 0.02479,-0.708 0.10554,-1.315 0.25881,-2.006 0.36511,-1.646 0.62378,-3.082 1.2198,-4.659 0.54286,-1.437 1.1265,-2.645 2.0143,-3.898 1.4999,-2.117 2.9713,-3.804 4.7685,-5.675 1.3511,-1.407 2.6576,-2.47 4.2005,-3.663 1.1256,-0.87 2.1392,-1.572 3.4059,-2.22 2.0832,-1.067 3.9189,-1.906 6.1333,-2.664 2.4831,-0.849 4.6976,-1.302 7.2497,-1.913 0.8955,-0.215 1.6798,-0.327 2.5933,-0.443 1.7965,-0.228 3.3412,-0.387 5.1457,-0.538 1.4243,-0.12 2.6481,-0.197 4.0768,-0.236 4.1323,-0.113 7.6755,-0.218 11.809,-0.197 0.9395,0.005 1.7452,0.109 2.6707,0.272 2.8306,0.496 5.2925,0.805 8.0519,1.607 2.129,0.62 3.8488,1.478 5.848,2.437 1.8276,0.876 3.284,1.84 5.0691,2.8 2.4242,1.304 4.5656,2.305 6.9569,3.669 3.5555,2.027 6.6801,3.661 10.028,6.016 3.8887,2.736 6.881,5.534 10.601,8.496 1.986,1.582 3.73,2.886 5.703,4.487 3.646,2.958 6.652,5.64 10.348,8.536 4.131,3.237 7.705,5.976 12.007,8.983 2.669,1.865 5.006,3.42 7.894,4.923 2.508,1.305 4.838,2.041 7.47,3.074 1.128,0.442 2.127,0.733 3.268,1.139 0.849,0.302 1.561,0.606 2.419,0.884 2.783,0.904 5.149,1.757 7.982,2.493 1.566,0.407 2.962,0.509 4.559,0.767 0.751,0.12 1.397,0.206 2.15,0.313 1.098,0.157 2.037,0.303 3.138,0.442 0.784,0.098 1.457,0.176 2.244,0.235 1.218,0.09 2.264,0.157 3.484,0.187 1.243,0.031 2.309,0.026 3.551,-0.015 0.873,-0.028 1.63,-0.027 2.49,-0.181 2.46,-0.44 4.596,-0.756 6.978,-1.513 3.784,-1.204 6.902,-2.601 10.589,-4.076 0.84,-0.336 1.544,-0.668 2.342,-1.095 3.11,-1.664 5.771,-3.103 8.821,-4.877 0.873,-0.508 1.572,-1.027 2.377,-1.637 1.035,-0.783 1.953,-1.428 2.876,-2.34 1.741,-1.721 3.117,-3.312 4.718,-5.164 2.03,-2.349 3.749,-4.384 5.654,-6.836 1.814,-2.334 3.353,-4.354 4.966,-6.831 0.819,-1.258 1.306,-2.463 1.966,-3.81 0.364,-0.743 0.856,-1.817 1.478,-3.222 l 14.632,25.344 c -0.694,1.306 -1.226,2.312 -1.596,3.017 -0.695,1.324 -1.135,2.553 -1.977,3.79 -1.642,2.415 -3.275,4.325 -5.096,6.608 -1.938,2.429 -3.621,4.494 -5.643,6.854 -1.596,1.864 -2.955,3.476 -4.692,5.21 -0.918,0.918 -1.838,1.562 -2.872,2.346 -0.805,0.61 -1.498,1.14 -2.379,1.635 -3.077,1.729 -5.779,3.094 -8.915,4.712 -0.805,0.415 -1.504,0.756 -2.343,1.095 -3.678,1.488 -6.78,2.918 -10.56,4.125 -2.384,0.762 -4.531,1.05 -6.996,1.481 -0.861,0.151 -1.618,0.145 -2.492,0.18 -1.232,0.049 -2.29,0.083 -3.524,0.06 -1.221,-0.022 -2.266,-0.105 -3.484,-0.188 -0.78,-0.053 -1.448,-0.108 -2.224,-0.2 -1.1,-0.13 -2.039,-0.274 -3.135,-0.435 -0.759,-0.112 -1.409,-0.217 -2.166,-0.343 -1.599,-0.265 -2.993,-0.379 -4.565,-0.775 -2.801,-0.706 -5.15,-1.505 -7.909,-2.366 -0.85,-0.265 -1.56,-0.552 -2.399,-0.851 -1.151,-0.409 -2.152,-0.721 -3.287,-1.173 -2.642,-1.053 -4.993,-1.784 -7.501,-3.126 -2.959,-1.585 -5.315,-3.264 -8.055,-5.203 -4.292,-3.038 -7.889,-5.758 -12.022,-9.009 -3.718,-2.924 -6.738,-5.636 -10.402,-8.628 -1.987,-1.623 -3.727,-2.967 -5.742,-4.555 -3.643,-2.872 -6.613,-5.54 -10.423,-8.188 -3.365,-2.338 -6.474,-4.003 -10.035,-6.03 -2.3809,-1.355 -4.5138,-2.348 -6.9348,-3.63 -1.759,-0.932 -3.2092,-1.843 -5.0081,-2.695 -2.0079,-0.951 -3.7275,-1.813 -5.8559,-2.45 -2.7856,-0.833 -5.2665,-1.199 -8.1247,-1.734 -0.927,-0.173 -1.7362,-0.28 -2.6793,-0.286 -4.1325,-0.023 -7.6745,0.09 -11.806,0.203 -1.4295,0.039 -2.6546,0.108 -4.0794,0.231 -1.8001,0.155 -3.3397,0.33 -5.1314,0.563 -0.9137,0.119 -1.6995,0.224 -2.5952,0.44 -2.5502,0.613 -4.7572,1.087 -7.2423,1.926 -2.2201,0.75 -4.0785,1.543 -6.1686,2.602 -1.2698,0.644 -2.2677,1.372 -3.3926,2.244 -1.5405,1.195 -2.8681,2.234 -4.2068,3.651 -1.7921,1.898 -3.2318,3.631 -4.7053,5.785 -0.8765,1.282 -1.4341,2.517 -1.9702,3.974 -0.5835,1.586 -0.847,3.024 -1.2117,4.674 -0.1522,0.689 -0.2395,1.293 -0.2628,1.998 -0.066,2.004 -0.1222,3.728 0.0083,5.728 0.2213,3.394 0.5952,6.29 0.9957,9.667 0.1255,1.059 0.3128,1.956 0.5065,3.004 0.186,1.006 0.327,1.874 0.5782,2.866 0.5932,2.343 1.1134,4.351 1.8333,6.658 0.1465,0.47 0.4287,1.114 0.8464,1.932 l -14.381,-24.909 c 0.86239,1.537 1.5869,2.676 2.1736,3.417 0.88425,1.117 1.7496,1.999 2.8404,2.915 1.4439,1.212 2.8096,2.092 4.3743,3.144 0.5378,0.362 1.0281,0.635 1.6243,0.89 0.8651,0.368 1.6145,0.702 2.5372,0.885 1.381,0.273 2.5967,0.498 4.0014,0.407 2.0971,-0.136 3.8937,-0.464 5.9115,-1.051 3.1433,-0.915 5.7781,-1.918 8.7805,-3.223 1.6667,-0.724 3.0138,-1.539 4.5188,-2.557 3.9588,-2.68 7.2432,-5.135 11.073,-7.996 0.8864,-0.662 1.5955,-1.298 2.3946,-2.063 4.1832,-4.006 7.7391,-7.471 11.837,-11.565 0.9338,-0.933 1.7049,-1.766 2.5346,-2.792 4.4159,-5.464 8.2915,-10.082 12.448,-15.745 5.869,-7.996 10.769,-14.954 16.183,-23.265 7.3144,-11.228 12.899,-21.286 20.172,-32.54 5.066,-7.839 9.902,-14.228 15.072,-21.999 1.664,-2.4999 2.889,-4.7697 4.446,-7.3373 0.61,-1.0074 1.148,-1.8625 1.746,-2.877 1.971,-3.339 3.662,-6.2 5.594,-9.5616 0.567,-0.9868 1,-1.8622 1.545,-2.861 1.045,-1.9118 1.859,-3.5982 2.998,-5.4548 3.56,-5.7981 6.692,-10.719 10.424,-16.408 0.979,-1.493 1.958,-2.6768 3.033,-4.1024 0.689,-0.9128 1.282,-1.6938 2.006,-2.5783 0.693,-0.8458 1.266,-1.5947 2.043,-2.3639 2.688,-2.6606 4.867,-5.1006 7.85,-7.4268 4.104,-3.2011 7.871,-5.6286 12.33,-8.3135 2.327,-1.4012 4.442,-2.4461 7.01,-3.3317 3.386,-1.1676 6.423,-1.7378 9.921,-2.507 1.875,-0.4124 3.5,-0.756 5.417,-0.8657 2.672,-0.1529 4.977,-0.0828 7.646,0.1181 2.264,0.1704 4.199,0.4581 6.418,0.9407 2.092,0.455 3.867,0.9662 5.866,1.7316 2.237,0.8561 4.114,1.7168 6.203,2.8884 1.914,1.0735 3.499,2.1171 5.197,3.5062 0.956,0.7822 2.193,2.0415 3.71,3.778 l 14.381,24.908 c 1.395,1.9081 2.421,3.4058 3.079,4.4932 0.523,0.865 0.902,1.6584 1.223,2.617 0.673,2.0081 1.24,3.7478 1.61,5.8333 0.427,2.4147 0.614,4.5236 0.659,6.9754 0.04,2.2192 -0.068,4.1358 -0.416,6.328 -0.311,1.9584 -0.744,3.6247 -1.456,5.4752 -0.772,2.0043 -1.553,3.7045 -2.762,5.4797 -1.283,1.8848 -2.724,3.2464 -4.302,4.8934 -0.703,0.733 -1.388,1.282 -2.199,1.894 -1.571,1.185 -2.907,2.23 -4.6,3.234 -3.2,1.897 -5.953,3.543 -9.358,5.042 -2.793,1.23 -5.339,1.919 -8.282,2.725 -1.912,0.523 -3.607,0.745 -5.563,1.067 -1.236,0.203 -2.301,0.393 -3.553,0.43 -3.67,0.109 -6.826,0.226 -10.489,-0.013 -4.87,-0.316 -9.016,-0.929 -13.854,-1.57 -1.239,-0.164 -2.29,-0.399 -3.495,-0.727 -3.634,-0.99 -6.764,-1.807 -10.324,-3.038 -1.721,-0.596 -3.149,-1.266 -4.731,-2.169 -2.531,-1.445 -4.605,-2.851 -6.992,-4.524 -1.321,-0.925 -2.402,-1.798 -3.59,-2.89 -3.332,-3.059 -6.129,-5.7462 -9.312,-8.9596 -3.647,-3.6818 -6.564,-7.0397 -10.197,-10.736 -4.104,-4.1762 -7.82,-7.5595 -11.907,-11.753 -2.097,-2.1525 -3.729,-4.1532 -5.756,-6.3721 -0.859,-0.94 -1.615,-1.7272 -2.489,-2.6531 -0.831,-0.8804 -1.535,-1.6434 -2.383,-2.5078 -2.588,-2.6399 -4.802,-4.9083 -7.435,-7.5041 -0.758,-0.7479 -1.452,-1.344 -2.252,-2.047 -0.764,-0.6714 -1.418,-1.2503 -2.217,-1.8792 -1.62,-1.2737 -2.982,-2.4054 -4.692,-3.5549 -3.126,-2.1015 -5.826,-3.8859 -9.113,-5.7254 -4.0521,-2.2675 -7.666,-3.9501 -11.834,-5.9967 -0.9857,-0.484 -1.8648,-0.8273 -2.886,-1.2311 -1.4553,-0.5754 -2.6871,-1.1225 -4.1878,-1.5659 -3.5473,-1.048 -6.5771,-2.0494 -10.22,-2.6907 -4.4157,-0.7773 -8.2612,-1.12 -12.739,-1.3509 -2.4319,-0.1255 -4.5313,0.0487 -6.9496,0.3354 -3.5597,0.4221 -6.62,0.8347 -10.102,1.6862 -3.2149,0.7862 -5.9132,1.7214 -8.9745,2.9791 -3.6693,1.5074 -6.7512,2.9761 -10.217,4.9054 -2.1584,1.2013 -3.8904,2.4532 -5.8058,4.0131 -1.1425,0.9304 -2.0164,1.8753 -2.8858,3.0649 -0.6097,0.8343 -0.9635,1.6748 -1.2939,2.6539 -0.3717,1.1018 -0.6129,2.0885 -0.6973,3.2481 -0.1186,1.6299 -0.0335,3.0407 0.1214,4.6675 0.1231,1.292 0.382,2.3817 0.6705,3.647 0.0611,0.2682 0.1987,0.6364 0.4128,1.1044 l -14.658,-25.388 c 0.04705,0.0777 0.09027,0.1296 0.12966,0.1558 0.02323,0.0155 0.06296,0.0187 0.11919,0.0097 l 14.692,25.448 c 0.032,0.0128 0.0455,0.015 0.0407,0.0066 -3.4235,-5.9446 -8.3235,-14.432 -14.7,-25.461 l 14.7,25.461 z"
         id="path2" />
      <path
         transform="translate(72.223,102.87)"
         d="m 15.063,25.536 c -0.0187,-0.0104 -0.0331,-0.0181 -0.0434,-0.0232 -0.0362,-0.0178 -0.0656,-0.0374 -0.1041,-0.0496 -0.0315,-0.01 -0.0606,-0.0106 -0.0936,-0.0128 -0.0128,-8e-4 -0.0245,-5e-4 -0.0364,0.0043 -0.0285,0.0117 -0.0503,0.0273 -0.0774,0.0421 -0.002,0.0011 -0.0053,0.0011 -0.0057,0.0033 -0.0051,0.0303 -0.0144,0.0569 -0.0097,0.0872 0.0029,0.0188 0.0146,0.0433 0.0349,0.0735 L 0.0416,0.2238 c 0.08076,0.084704 0.14827,0.14208 0.20252,0.17212 0.18187,0.10072 0.35122,0.16054 0.54302,0.24074 0.4337,0.18135 0.82756,0.28831 1.244,0.50646 0.50649,0.26535 0.88576,0.58732 1.3829,0.86975 0.51212,0.29092 0.96528,0.51549 1.498,0.7668 0.22686,0.10703 0.43525,0.16607 0.6695,0.25577 0.51394,0.19682 0.94609,0.38889 1.4682,0.56288 1.0046,0.33479 1.8612,0.64592 2.8915,0.89004 0.9874,0.23393 1.8637,0.28188 2.8603,0.4727 1.8163,0.34778 3.3609,0.70723 5.1751,1.0659 0.9429,0.18641 1.7642,0.28016 2.7018,0.49135 1.0452,0.23539 1.9676,0.37732 2.9589,0.78361 2.8959,1.1869 5.2801,2.4298 8.1153,3.7552 0.3199,0.1496 0.5841,0.2983 0.8987,0.4587 0.3357,0.1713 0.6302,0.3055 0.9593,0.4891 1.2289,0.6857 2.3189,1.2158 3.4913,1.9942 1.0842,0.7198 1.9102,1.4806 2.9403,2.276 0.2879,0.2224 0.5375,0.4093 0.8254,0.6317 0.679,0.5246 1.2561,0.9804 1.9369,1.5025 0.6029,0.4624 1.1382,0.8349 1.7308,1.3105 0.6694,0.5371 1.2051,1.0437 1.8736,1.5819 0.8059,0.6489 1.5001,1.2021 2.3381,1.809 0.4127,0.2989 0.8001,0.5053 1.2315,0.7764 0.3051,0.1919 0.5668,0.356 0.8727,0.5466 0.3057,0.1903 0.5676,0.3535 0.8745,0.5418 0.3051,0.1871 0.564,0.3523 0.8743,0.5307 0.7829,0.4502 1.4556,0.8335 2.2488,1.2652 0.3381,0.1839 0.6363,0.3258 0.9828,0.4932 0.3256,0.1574 0.6103,0.2803 0.9373,0.4346 0.4765,0.2248 0.8829,0.4218 1.3585,0.6484 0.3295,0.157 0.6023,0.3139 0.9419,0.4476 1.3815,0.5438 2.593,0.9388 3.9727,1.4871 0.9968,0.3962 1.83,0.787 2.8155,1.2106 2.3496,1.0102 4.3152,1.997 6.7133,2.886 1.1949,0.443 2.2716,0.6832 3.5257,0.9099 1.3611,0.2461 2.5499,0.3151 3.9277,0.4378 0.5926,0.0527 1.1037,0.0669 1.6986,0.063 0.7856,-0.005 1.4608,-0.0144 2.2431,-0.0883 0.3788,-0.0357 0.7034,-0.102 1.0639,-0.2238 0.9479,-0.3205 1.7362,-0.6629 2.6644,-1.0365 0.3392,-0.1365 0.6258,-0.264 0.9562,-0.4206 0.4757,-0.2255 0.8784,-0.4298 1.3464,-0.671 0.0167,-0.0085 0.027,-0.0235 0.0348,-0.0406 0.0061,-0.0134 0.01,-0.034 0.0118,-0.062 l 14.68,25.427 c -10e-4,0.03 -0.004,0.0526 -0.009,0.0676 -0.006,0.0186 -0.013,0.0396 -0.031,0.0469 -0.495,0.1971 -0.926,0.3485 -1.426,0.5332 -0.346,0.1279 -0.647,0.2254 -0.991,0.3602 -0.93,0.3646 -1.704,0.7383 -2.647,1.0664 -0.3594,0.125 -0.6847,0.191 -1.0638,0.2242 -0.7869,0.0688 -1.4659,0.0667 -2.2558,0.0663 -0.5961,-4e-4 -1.1083,-0.0113 -1.7016,-0.0684 -1.3859,-0.1333 -2.5815,-0.2165 -3.9495,-0.4754 -1.2615,-0.2388 -2.3412,-0.4968 -3.545,-0.9433 -2.3885,-0.886 -4.353,-1.8536 -6.6955,-2.8551 -0.9865,-0.4218 -1.8193,-0.8142 -2.8159,-1.2116 -1.3822,-0.5511 -2.5953,-0.9505 -3.979,-1.4979 -0.3399,-0.1345 -0.6128,-0.2923 -0.9429,-0.4493 -0.4744,-0.2256 -0.8815,-0.4181 -1.3558,-0.6438 -0.3318,-0.1578 -0.6176,-0.2903 -0.9475,-0.4522 -0.3462,-0.1698 -0.6447,-0.3122 -0.984,-0.4954 -0.7881,-0.4256 -1.4587,-0.7997 -2.2365,-1.2438 -0.3116,-0.1779 -0.5699,-0.3451 -0.8756,-0.5329 -0.3068,-0.1884 -0.5686,-0.3519 -0.8745,-0.542 -0.3049,-0.1894 -0.5659,-0.3522 -0.8704,-0.5423 -0.4291,-0.2679 -0.8145,-0.4715 -1.2256,-0.7664 -0.8308,-0.5958 -1.5209,-1.137 -2.3191,-1.7759 -0.6689,-0.5355 -1.2043,-1.0406 -1.8715,-1.5784 -0.5997,-0.4834 -1.1381,-0.8667 -1.747,-1.3384 -0.6853,-0.531 -1.2641,-0.9972 -1.9506,-1.5265 -0.2787,-0.2148 -0.5284,-0.3845 -0.8069,-0.5995 -1.039,-0.8018 -1.8659,-1.5764 -2.9572,-2.3054 -1.1738,-0.784 -2.2655,-1.3193 -3.4985,-2.0065 -0.3244,-0.1808 -0.6187,-0.3047 -0.9498,-0.4728 -0.3177,-0.1611 -0.5811,-0.317 -0.9039,-0.4676 -2.8306,-1.3212 -5.2153,-2.5504 -8.1048,-3.7372 -0.999,-0.4103 -1.9238,-0.5721 -2.9764,-0.8139 -0.9365,-0.2151 -1.758,-0.3067 -2.7012,-0.4901 -1.8082,-0.3518 -3.3488,-0.701 -5.1596,-1.0392 -0.9935,-0.1856 -1.8662,-0.2309 -2.8512,-0.4569 -1.0224,-0.2346 -1.874,-0.5339 -2.8722,-0.8565 -0.5176,-0.1672 -0.9472,-0.3511 -1.4564,-0.5425 -0.235,-0.0882 -0.4419,-0.1511 -0.6698,-0.2563 -0.5252,-0.2423 -0.9738,-0.4556 -1.48,-0.7356 -0.4905,-0.2714 -0.8645,-0.5855 -1.3648,-0.8384 -0.4092,-0.2069 -0.7954,-0.3039 -1.2228,-0.4698 -0.1841,-0.0715 -0.3473,-0.1211 -0.5244,-0.2086 -0.0489,-0.0241 -0.1106,-0.0715 -0.1852,-0.1421 L 0.04124,0.22372 C 0.02035,0.191418 0.00783,0.165365 0.003682,0.145562 -0.0038992,0.109373 9.93e-4,0.076858 0.0027372,0.039922 c 1.094e-4,-0.0023166 0.0039236,-0.0017776 0.00606,-0.00268 0.028622,-0.01209 0.052073,-0.02547 0.081821,-0.03444 0.012718,-0.0038351 0.024737,-0.0033235 0.037917,-0.0016661 0.034287,0.0043116 0.064511,0.0067462 0.096961,0.018627 0.040049,0.014663 0.069958,0.037149 0.10801,0.056418 0.009415,0.0047683 0.023088,0.01112 0.041019,0.019056 z"
         id="path4" />
    </g>
  </g>
</svg>
